lat,lon,intensity
43.62240744638525,3.9169692993164062,0.10525667710107196
43.62240744638525,3.9173126220703125,0.10168781065019128
43.62215891380659,3.9166259765625,0.10385237757448623
43.62215891380659,3.9169692993164062,0.10716661010541131
43.621910380200475,3.9166259765625,0.10582938751795838
43.621910380200475,3.9169692993164062,0.10360101782391287
43.62166184556694,3.9166259765625,0.10272633294199328
43.61718804647439,3.9135360717773438,0.10100013767735322
43.61693949231989,3.912506103515625,0.11879730203189368
43.61693949231989,3.9128494262695312,0.13679848343630444
43.61693949231989,3.9131927490234375,0.1482894905574069
43.61693949231989,3.9135360717773438,0.14998183234194912
43.61693949231989,3.91387939453125,0.14033174454978767
43.61693949231989,3.9142227172851562,0.12051751982602087
43.61669093713796,3.9118194580078125,0.12451921699331203
43.61669093713796,3.9121627807617188,0.14940989430057294
43.61669093713796,3.912506103515625,0.17272676952497798
43.61669093713796,3.9128494262695312,0.1924119412621542
43.61669093713796,3.9131927490234375,0.2056243077370634
43.61669093713796,3.9135360717773438,0.20904518120384422
43.61669093713796,3.91387939453125,0.19999692893719306
43.61669093713796,3.9142227172851562,0.17811732365621363
43.61669093713796,3.9145660400390625,0.1462312831150219
43.61669093713796,3.9149093627929688,0.10954584661521934
43.61644238092862,3.9111328125,0.11822160568083966
43.61644238092862,3.9114761352539062,0.1494064871197355
43.61644238092862,3.9118194580078125,0.17816085436850124
43.61644238092862,3.9121627807617188,0.20352787754091028
43.61644238092862,3.912506103515625,0.225547763581246
43.61644238092862,3.9128494262695312,0.24454143198303027
43.61644238092862,3.9131927490234375,0.2597484855963529
43.61644238092862,3.9135360717773438,0.26811023524184957
43.61644238092862,3.91387939453125,0.2648607671760207
43.61644238092862,3.9142227172851562,0.24630206050220957
43.61644238092862,3.9145660400390625,0.21249081253164476
43.61644238092862,3.9149093627929688,0.1677378114866271
43.61644238092862,3.915252685546875,0.1193806304494374
43.616193823691866,3.9107894897460938,0.12464444276013706
43.616193823691866,3.9111328125,0.1649455448851609
43.616193823691866,3.9114761352539062,0.20072990983921288
43.616193823691866,3.9118194580078125,0.2290366246780662
43.616193823691866,3.9121627807617188,0.24977854712033598
43.616193823691866,3.912506103515625,0.26578057006104816
43.616193823691866,3.9128494262695312,0.28134180793733227
43.616193823691866,3.9131927490234375,0.2990598414947721
43.616193823691866,3.9135360717773438,0.3164397207764438
43.616193823691866,3.91387939453125,0.32563967718828307
43.616193823691866,3.9142227172851562,0.31770341857724876
43.616193823691866,3.9145660400390625,0.28791235852580693
43.616193823691866,3.9149093627929688,0.23835548144295163
43.616193823691866,3.915252685546875,0.17753280070516447
43.616193823691866,3.9155960083007812,0.11765144132721896
43.6159452654277,3.9104461669921875,0.11124716011340707
43.6159452654277,3.9107894897460938,0.16096950890880785
43.6159452654277,3.9111328125,0.20813928910766896
43.6159452654277,3.9114761352539062,0.24543744306154155
43.6159452654277,3.9118194580078125,0.2691094888889041
43.6159452654277,3.9121627807617188,0.2805414197114759
43.6159452654277,3.912506103515625,0.28638938102795986
43.6159452654277,3.9128494262695312,0.29617131400501184
43.6159452654277,3.9131927490234375,0.31686777250415826
43.6159452654277,3.9135360717773438,0.346876326514817
43.6159452654277,3.91387939453125,0.3746129262845761
43.6159452654277,3.9142227172851562,0.38439103438855154
43.6159452654277,3.9145660400390625,0.3650630693462126
43.6159452654277,3.9149093627929688,0.3152544037573474
43.6159452654277,3.915252685546875,0.24408957066598977
43.6159452654277,3.9155960083007812,0.16799844485884943
43.6159452654277,3.9159393310546875,0.10326003192491111
43.615696706136106,3.9104461669921875,0.13189000374877508
43.615696706136106,3.9107894897460938,0.18932615675182266
43.615696706136106,3.9111328125,0.24117696701718747
43.615696706136106,3.9114761352539062,0.27768414742530634
43.615696706136106,3.9118194580078125,0.29426709435940435
43.615696706136106,3.9121627807617188,0.29393021413709064
43.615696706136106,3.912506103515625,0.2875109668860263
43.615696706136106,3.9128494262695312,0.29025787046353757
43.615696706136106,3.9131927490234375,0.31408808224475965
43.615696706136106,3.9135360717773438,0.3586525719217068
43.615696706136106,3.91387939453125,0.40853546410391983
43.615696706136106,3.9142227172851562,0.440731309647198
43.615696706136106,3.9145660400390625,0.4368131029646889
43.615696706136106,3.9149093627929688,0.3911120709204746
43.615696706136106,3.915252685546875,0.31272298756761924
43.615696706136106,3.9155960083007812,0.22197334499448793
43.615696706136106,3.9159393310546875,0.14080450818865187
43.61544814581712,3.9104461669921875,0.14281654467793642
43.61544814581712,3.9107894897460938,0.20526767951330963
43.61544814581712,3.9111328125,0.26015406400002417
43.61544814581712,3.9114761352539062,0.29539954126461676
43.61544814581712,3.9118194580078125,0.30533482893300246
43.61544814581712,3.9121627807617188,0.294096725535208
43.61544814581712,3.912506103515625,0.27615429642691913
43.61544814581712,3.9128494262695312,0.2721024114060399
43.61544814581712,3.9131927490234375,0.29879055132079163
43.61544814581712,3.9135360717773438,0.3575169508871365
43.61544814581712,3.91387939453125,0.4295999725106103
43.61544814581712,3.9142227172851562,0.48514664898759596
43.61544814581712,3.9145660400390625,0.4985662145103873
43.61544814581712,3.9149093627929688,0.45965608584755485
43.61544814581712,3.915252685546875,0.3769128642772796
43.61544814581712,3.9155960083007812,0.27385402030488865
43.61544814581712,3.9159393310546875,0.177627990212212
43.61544814581712,3.9162826538085938,0.10522074143039026
43.6151995844707,3.9104461669921875,0.14280339902099431
43.6151995844707,3.9107894897460938,0.2077311332387637
43.6151995844707,3.9111328125,0.26501662574504353
43.6151995844707,3.9114761352539062,0.30054137333202996
43.6151995844707,3.9118194580078125,0.3070836378435586
43.6151995844707,3.9121627807617188,0.28887736200349085
43.6151995844707,3.912506103515625,0.26270436931346797
43.6151995844707,3.9128494262695312,0.2533692404638317
43.6151995844707,3.9131927490234375,0.282185579149312
43.6151995844707,3.9135360717773438,0.352509479317252
43.6151995844707,3.91387939453125,0.44347093862399395
43.6151995844707,3.9142227172851562,0.519523867177756
43.6151995844707,3.9145660400390625,0.5488153508951654
43.6151995844707,3.9149093627929688,0.5169295014276012
43.6151995844707,3.915252685546875,0.4314532189654448
43.6151995844707,3.9155960083007812,0.3183048502953525
43.6151995844707,3.9159393310546875,0.20903393357634764
43.6151995844707,3.9162826538085938,0.124710220654988
43.61495102209688,3.9104461669921875,0.13367768576012687
43.61495102209688,3.9107894897460938,0.19919974476856656
43.61495102209688,3.9111328125,0.25909618957603786
43.61495102209688,3.9114761352539062,0.2975831629701076
43.61495102209688,3.9118194580078125,0.30539009786688986
43.61495102209688,3.9121627807617188,0.2856092997443919
43.61495102209688,3.912506103515625,0.25568633433029925
43.61495102209688,3.9128494262695312,0.24313540664895195
43.61495102209688,3.9131927490234375,0.27299855848820664
43.61495102209688,3.9135360717773438,0.35104728053468376
43.61495102209688,3.91387939453125,0.4554950180763863
43.61495102209688,3.9142227172851562,0.5467358455568135
43.61495102209688,3.9145660400390625,0.587951766659127
43.61495102209688,3.9149093627929688,0.5612019101358964
43.61495102209688,3.915252685546875,0.47316510162244796
43.61495102209688,3.9155960083007812,0.35154065292855735
43.61495102209688,3.9159393310546875,0.23140875004801162
43.61495102209688,3.9162826538085938,0.13732996304284448
43.61470245869565,3.9104461669921875,0.11926450985151468
43.61470245869565,3.9107894897460938,0.18423599538341184
43.61470245869565,3.9111328125,0.24718237578935437
43.61470245869565,3.9114761352539062,0.2911011749243977
43.61470245869565,3.9118194580078125,0.30436700664744637
43.61470245869565,3.9121627807617188,0.287902741423646
43.61470245869565,3.912506103515625,0.2583265359548862
43.61470245869565,3.9128494262695312,0.24439663944416076
43.61470245869565,3.9131927490234375,0.27405561829140707
43.61470245869565,3.9135360717773438,0.3557087673871485
43.61470245869565,3.91387939453125,0.4678186753446233
43.61470245869565,3.9142227172851562,0.5682698252399979
43.61470245869565,3.9145660400390625,0.6166065529099269
43.61470245869565,3.9149093627929688,0.5921743849630505
43.61470245869565,3.915252685546875,0.500958797998277
43.61470245869565,3.9155960083007812,0.37204228765974623
43.61470245869565,3.9159393310546875,0.24325904017590566
43.61470245869565,3.9162826538085938,0.1419580078656318
43.614453894267,3.9104461669921875,0.10364423102175044
43.614453894267,3.9107894897460938,0.1674935338241151
43.614453894267,3.9111328125,0.23363028047551263
43.614453894267,3.9114761352539062,0.284307092294484
43.614453894267,3.9118194580078125,0.30553756659694076
43.614453894267,3.9121627807617188,0.2954957474208399
43.614453894267,3.912506103515625,0.26893715186991746
43.614453894267,3.9128494262695312,0.2546935088245395
43.614453894267,3.9131927490234375,0.28282281502733636
43.614453894267,3.9135360717773438,0.36442169726576135
43.614453894267,3.91387939453125,0.47911310060656
43.614453894267,3.9142227172851562,0.5835719076395864
43.614453894267,3.9145660400390625,0.634855529507277
43.614453894267,3.9149093627929688,0.6103310250303102
43.614453894267,3.915252685546875,0.5155281422747362
43.614453894267,3.9155960083007812,0.38061385993325686
43.614453894267,3.9159393310546875,0.2454919334217306
43.614453894267,3.9162826538085938,0.13958493101936054
43.61420532881094,3.9107894897460938,0.1524125804520922
43.61420532881094,3.9111328125,0.2214853476040971
43.61420532881094,3.9114761352539062,0.278971375583769
43.61420532881094,3.9118194580078125,0.30875142945560624
43.61420532881094,3.9121627807617188,0.306124077914847
43.61420532881094,3.912506103515625,0.2834856601462496
43.61420532881094,3.9128494262695312,0.26899957346231723
43.61420532881094,3.9131927490234375,0.29421400126817115
43.61420532881094,3.9135360717773438,0.37285299744758205
43.61420532881094,3.91387939453125,0.48632069543762246
43.61420532881094,3.9142227172851562,0.5910681270145534
43.61420532881094,3.9145660400390625,0.642569743476847
43.61420532881094,3.9149093627929688,0.6167713029342348
43.61420532881094,3.915252685546875,0.5188610969527391
43.61420532881094,3.9155960083007812,0.3797494881215565
43.61420532881094,3.9159393310546875,0.24075310996168858
43.61420532881094,3.9162826538085938,0.13268670353641793
43.61395676232748,3.9107894897460938,0.14071831563881998
43.61395676232748,3.9111328125,0.2122364694038587
43.61395676232748,3.9114761352539062,0.2756787379721994
43.61395676232748,3.9118194580078125,0.3131164378609995
43.61395676232748,3.9121627807617188,0.3171734689395476
43.61395676232748,3.912506103515625,0.29786519123262567
43.61395676232748,3.9128494262695312,0.2823921508064487
43.61395676232748,3.9131927490234375,0.30339065884919847
43.61395676232748,3.9135360717773438,0.37706733865148445
43.61395676232748,3.91387939453125,0.48693619261835513
43.61395676232748,3.9142227172851562,0.5898818536807081
43.61395676232748,3.9145660400390625,0.6404426078057842
43.61395676232748,3.9149093627929688,0.6135045256259857
43.61395676232748,3.915252685546875,0.5138743267275581
43.61395676232748,3.9155960083007812,0.3727889623427124
43.61395676232748,3.9159393310546875,0.23233975446365215
43.61395676232748,3.9162826538085938,0.12412885836110071
43.613708194816596,3.9107894897460938,0.1324450719195278
43.613708194816596,3.9111328125,0.2058096795846038
43.613708194816596,3.9114761352539062,0.2739270205186731
43.613708194816596,3.9118194580078125,0.31737938509598407
43.613708194816596,3.9121627807617188,0.3264865791138845
43.613708194816596,3.912506103515625,0.30917016856416624
43.613708194816596,3.9128494262695312,0.29171007961570755
43.613708194816596,3.9131927490234375,0.3076245511893731
43.613708194816596,3.9135360717773438,0.3753994561821745
43.613708194816596,3.91387939453125,0.48071986943886974
43.613708194816596,3.9142227172851562,0.5812401654408785
43.613708194816596,3.9145660400390625,0.6309498623095939
43.613708194816596,3.9149093627929688,0.6038592118893932
43.613708194816596,3.915252685546875,0.5042582605938015
43.613708194816596,3.9155960083007812,0.36330430407250464
43.613708194816596,3.9159393310546875,0.2233304736450125
43.613708194816596,3.9162826538085938,0.1162735242259231
43.613459626278306,3.9107894897460938,0.12651057141275715
43.613459626278306,3.9111328125,0.20106456766020736
43.613459626278306,3.9114761352539062,0.27253694249244265
43.613459626278306,3.9118194580078125,0.32031042017619205
43.613459626278306,3.9121627807617188,0.3328092436546229
43.613459626278306,3.912506103515625,0.3162570338341024
43.613459626278306,3.9128494262695312,0.29620364527757587
43.613459626278306,3.9131927490234375,0.30694384533464975
43.613459626278306,3.9135360717773438,0.36899237456463946
43.613459626278306,3.91387939453125,0.4700584987424148
43.613459626278306,3.9142227172851562,0.5686235764833945
43.613459626278306,3.9145660400390625,0.6182740187808892
43.613459626278306,3.9149093627929688,0.5921901678433585
43.613459626278306,3.915252685546875,0.494009297153986
43.613459626278306,3.9155960083007812,0.3545377737260507
43.613459626278306,3.9159393310546875,0.21603562933963485
43.613459626278306,3.9162826538085938,0.1105413251095782
43.613211056712615,3.9107894897460938,0.12179487609205632
43.613211056712615,3.9111328125,0.19691411516267907
43.613211056712615,3.9114761352539062,0.2706273055604847
43.613211056712615,3.9118194580078125,0.32138698399558707
43.613211056712615,3.9121627807617188,0.33610726562096804
43.613211056712615,3.912506103515625,0.3196871088655983
43.613211056712615,3.9128494262695312,0.29713356405840724
43.613211056712615,3.9131927490234375,0.3034164242958544
43.613211056712615,3.9135360717773438,0.36078275210839145
43.613211056712615,3.91387939453125,0.4586872949773444
43.613211056712615,3.9142227172851562,0.55630952568875
43.613211056712615,3.9145660400390625,0.6068138851131394
43.613211056712615,3.9149093627929688,0.582529677016934
43.613211056712615,3.915252685546875,0.4863740248228627
43.613211056712615,3.9155960083007812,0.3487181103061296
43.613211056712615,3.9159393310546875,0.2116774524262143
43.613211056712615,3.9162826538085938,0.1073735195507236
43.61296248611949,3.9107894897460938,0.11825521219279247
43.61296248611949,3.9111328125,0.1935379990931047
43.61296248611949,3.9114761352539062,0.2686494104230221
43.61296248611949,3.9118194580078125,0.3213758947903049
43.61296248611949,3.9121627807617188,0.3375158101925743
43.61296248611949,3.912506103515625,0.3210077709432163
43.61296248611949,3.9128494262695312,0.2964833558272082
43.61296248611949,3.9131927490234375,0.2994579371168197
43.61296248611949,3.9135360717773438,0.35356105934836085
43.61296248611949,3.91387939453125,0.44963634380007783
43.61296248611949,3.9142227172851562,0.5473531224027415
43.61296248611949,3.9145660400390625,0.5993831440042967
43.61296248611949,3.9149093627929688,0.5771879467634178
43.61296248611949,3.915252685546875,0.4829689829377174
43.61296248611949,3.9155960083007812,0.3467039186611447
43.61296248611949,3.9159393310546875,0.21044839431227247
43.61296248611949,3.9162826538085938,0.1065257791752144
43.612713914498975,3.9107894897460938,0.1174586146012699
43.612713914498975,3.9111328125,0.1928780930364868
43.612713914498975,3.9114761352539062,0.26863927014088756
43.612713914498975,3.9118194580078125,0.3221488955119394
43.612713914498975,3.9121627807617188,0.3386133660934606
43.612713914498975,3.912506103515625,0.3215175529094396
43.612713914498975,3.9128494262695312,0.29537964379572434
43.612713914498975,3.9131927490234375,0.29613552496497936
43.612713914498975,3.9135360717773438,0.3483671297250811
43.612713914498975,3.91387939453125,0.4438639385301382
43.612713914498975,3.9142227172851562,0.5425493228801513
43.612713914498975,3.9145660400390625,0.5965536719877933
43.612713914498975,3.9149093627929688,0.5764869003233457
43.612713914498975,3.915252685546875,0.48386079353372924
43.612713914498975,3.9155960083007812,0.34831640627421717
43.612713914498975,3.9159393310546875,0.21197060297924208
43.612713914498975,3.9162826538085938,0.10752493966238849
43.612465341851056,3.9107894897460938,0.12224683424529867
43.612465341851056,3.9111328125,0.1980131711702757
43.612465341851056,3.9114761352539062,0.27330855117814185
43.612465341851056,3.9118194580078125,0.3255607334158942
43.612465341851056,3.9121627807617188,0.34021038239206214
43.612465341851056,3.912506103515625,0.3211205592852941
43.612465341851056,3.9128494262695312,0.2931644846362173
43.612465341851056,3.9131927490234375,0.2925741586594662
43.612465341851056,3.9135360717773438,0.34429454392426134
43.612465341851056,3.91387939453125,0.4404642988002815
43.612465341851056,3.9142227172851562,0.5409865860457387
43.612465341851056,3.9145660400390625,0.5974421422149375
43.612465341851056,3.9149093627929688,0.5796373305590712
43.612465341851056,3.915252685546875,0.488401110015539
43.612465341851056,3.9155960083007812,0.3530408919178206
43.612465341851056,3.9159393310546875,0.21582212468337902
43.612465341851056,3.9162826538085938,0.11001795810709104
43.61221676817572,3.9107894897460938,0.13575675288683298
43.61221676817572,3.9111328125,0.21179000689231
43.61221676817572,3.9114761352539062,0.2845710323946463
43.61221676817572,3.9118194580078125,0.33223501504938185
43.61221676817572,3.9121627807617188,0.34170980056480027
43.61221676817572,3.912506103515625,0.31842759704224155
43.61221676817572,3.9128494262695312,0.2882109723422339
43.61221676817572,3.9131927490234375,0.2873147390825463
43.61221676817572,3.9135360717773438,0.3401733219278368
43.61221676817572,3.91387939453125,0.4384761352758443
43.61221676817572,3.9142227172851562,0.5418052500423729
43.61221676817572,3.9145660400390625,0.6012583666048897
43.61221676817572,3.9149093627929688,0.5859555799762394
43.61221676817572,3.915252685546875,0.49606172273625565
43.61221676817572,3.9155960083007812,0.36051257970823886
43.61221676817572,3.9159393310546875,0.22176233181339566
43.61221676817572,3.9162826538085938,0.11383994558983063
43.611968193472975,3.9107894897460938,0.16077084912218512
43.611968193472975,3.9111328125,0.23601329356890677
43.611968193472975,3.9114761352539062,0.3030242345455592
43.611968193472975,3.9118194580078125,0.3417870663861422
43.611968193472975,3.9121627807617188,0.34233823722548345
43.611968193472975,3.912506103515625,0.3129803611961764
43.611968193472975,3.9128494262695312,0.28086256960359307
43.611968193472975,3.9131927490234375,0.28156130707501004
43.611968193472975,3.9135360717773438,0.3377398860236601
43.611968193472975,3.91387939453125,0.43968339871194295
43.611968193472975,3.9142227172851562,0.5464301611208114
43.611968193472975,3.9145660400390625,0.6088617606709377
43.611968193472975,3.9149093627929688,0.5957428242703937
43.611968193472975,3.915252685546875,0.5067483786600723
43.611968193472975,3.9155960083007812,0.3704586991628134
43.611968193472975,3.9159393310546875,0.22951162383648266
43.611968193472975,3.9162826538085938,0.11878660269592765
43.61171961774283,3.9104461669921875,0.13182688777464738
43.61171961774283,3.9107894897460938,0.20046573326144895
43.61171961774283,3.9111328125,0.2724447148166638
43.61171961774283,3.9114761352539062,0.3295728987383034
43.61171961774283,3.9118194580078125,0.35529752126876296
43.61171961774283,3.9121627807617188,0.3444348523525234
43.61171961774283,3.912506103515625,0.30906025759461675
43.61171961774283,3.9128494262695312,0.2773259180601451
43.61171961774283,3.9131927490234375,0.2827432491277764
43.61171961774283,3.9135360717773438,0.34456769298306816
43.61171961774283,3.91387939453125,0.45073232964801435
43.61171961774283,3.9142227172851562,0.5598025924248746
43.61171961774283,3.9145660400390625,0.623160573624557
43.61171961774283,3.9149093627929688,0.6100288013538525
43.61171961774283,3.915252685546875,0.5201522161395855
43.61171961774283,3.9155960083007812,0.3819378036263156
43.61171961774283,3.9159393310546875,0.23809687199984522
43.61171961774283,3.9162826538085938,0.12416777252554351
43.61147104098527,3.9101028442382812,0.12787939681847482
43.61147104098527,3.9104461669921875,0.19021017742353932
43.61147104098527,3.9107894897460938,0.2606433349657525
43.61147104098527,3.9111328125,0.3255426124614245
43.61147104098527,3.9114761352539062,0.36869752870123973
43.61147104098527,3.9118194580078125,0.3788520503348633
43.61147104098527,3.9121627807617188,0.3567898286024455
43.61147104098527,3.912506103515625,0.31829882871548515
43.61147104098527,3.9128494262695312,0.2911696382244445
43.61147104098527,3.9131927490234375,0.30477510822564213
43.61147104098527,3.9135360717773438,0.37319021490073007
43.61147104098527,3.91387939453125,0.481364775686697
43.61147104098527,3.9142227172851562,0.5880602130627122
43.61147104098527,3.9145660400390625,0.6466230150257465
43.61147104098527,3.9149093627929688,0.6282764987763493
43.61147104098527,3.915252685546875,0.5339035727299088
43.61147104098527,3.9155960083007812,0.39204275311091585
43.61147104098527,3.9159393310546875,0.24506006106193376
43.61147104098527,3.9162826538085938,0.12839201760680644
43.61122246320031,3.9094161987304688,0.10481211180312626
43.61122246320031,3.909759521484375,0.15213251566332933
43.61122246320031,3.9101028442382812,0.21276665255067925
43.61122246320031,3.9104461669921875,0.28226543843983926
43.61122246320031,3.9107894897460938,0.350435064222166
43.61122246320031,3.9111328125,0.40353614725948933
43.61122246320031,3.9114761352539062,0.4294879714959324
43.61122246320031,3.9118194580078125,0.42380138990838256
43.61122246320031,3.9121627807617188,0.3933591673538339
43.61122246320031,3.912506103515625,0.356347186209247
43.61122246320031,3.9128494262695312,0.33792408549001696
43.61122246320031,3.9131927490234375,0.3610385454359554
43.61122246320031,3.9135360717773438,0.43323473764418197
43.61122246320031,3.91387939453125,0.5365970449284191
43.61122246320031,3.9142227172851562,0.6315987330934177
43.61122246320031,3.9145660400390625,0.675834568230966
43.61122246320031,3.9149093627929688,0.6446926068007501
43.61122246320031,3.915252685546875,0.5415022898741937
43.61122246320031,3.9155960083007812,0.39502161950441117
43.61122246320031,3.9159393310546875,0.2462461015490857
43.61122246320031,3.9162826538085938,0.12900636603715826
43.610973884387946,3.9087295532226562,0.11040017198623281
43.610973884387946,3.9090728759765625,0.15366779926406962
43.610973884387946,3.9094161987304688,0.20776080433800956
43.610973884387946,3.909759521484375,0.27262456974559574
43.610973884387946,3.9101028442382812,0.3449077180771162
43.610973884387946,3.9104461669921875,0.4166547156355336
43.610973884387946,3.9107894897460938,0.47629646860057046
43.610973884387946,3.9111328125,0.5125000084815766
43.610973884387946,3.9114761352539062,0.5191801704135193
43.610973884387946,3.9118194580078125,0.49897045427544495
43.610973884387946,3.9121627807617188,0.46360102576912976
43.610973884387946,3.912506103515625,0.4313486930991896
43.610973884387946,3.9128494262695312,0.4223181464132266
43.610973884387946,3.9131927490234375,0.4514483524518556
43.610973884387946,3.9135360717773438,0.5195309973250368
43.610973884387946,3.91387939453125,0.6069519784136136
43.610973884387946,3.9142227172851562,0.6781272350973985
43.610973884387946,3.9145660400390625,0.6975223128842223
43.610973884387946,3.9149093627929688,0.6467996236121255
43.610973884387946,3.915252685546875,0.5326163940001003
43.610973884387946,3.9155960083007812,0.3833664387358393
43.610973884387946,3.9159393310546875,0.2369326027647404
43.610973884387946,3.9162826538085938,0.12348893027927016
43.61072530454817,3.9080429077148438,0.11733736509306672
43.61072530454817,3.90838623046875,0.16624319037641008
43.61072530454817,3.9087295532226562,0.22449030603913406
43.61072530454817,3.9090728759765625,0.2914954284000821
43.61072530454817,3.9094161987304688,0.3659483520725288
43.61072530454817,3.909759521484375,0.44462244818514207
43.61072530454817,3.9101028442382812,0.5211584119928063
43.61072530454817,3.9104461669921875,0.5860851818155337
43.61072530454817,3.9107894897460938,0.6291931613161371
43.61072530454817,3.9111328125,0.6437858841440854
43.61072530454817,3.9114761352539062,0.6303701833036198
43.61072530454817,3.9118194580078125,0.5974257415765577
43.61072530454817,3.9121627807617188,0.5590691384904489
43.61072530454817,3.912506103515625,0.5311441314572419
43.61072530454817,3.9128494262695312,0.5271540145053957
43.61072530454817,3.9131927490234375,0.553980742086489
43.61072530454817,3.9135360717773438,0.6069279748282871
43.61072530454817,3.91387939453125,0.6667036249568007
43.61072530454817,3.9142227172851562,0.7039369916762149
43.61072530454817,3.9145660400390625,0.6919673239905844
43.61072530454817,3.9149093627929688,0.6198507233597832
43.61072530454817,3.915252685546875,0.4974081704311982
43.61072530454817,3.9155960083007812,0.3512859325580697
43.61072530454817,3.9159393310546875,0.21414969757056337
43.61072530454817,3.9162826538085938,0.11053267766343683
43.610476723680996,3.9073562622070312,0.10820275136217701
43.610476723680996,3.9076995849609375,0.16330692444779984
43.610476723680996,3.9080429077148438,0.23065874332890607
43.610476723680996,3.90838623046875,0.3077281540165563
43.610476723680996,3.9087295532226562,0.3913272724056797
43.610476723680996,3.9090728759765625,0.4781050011166964
43.610476723680996,3.9094161987304688,0.5642227324827912
43.610476723680996,3.909759521484375,0.6444583580466077
43.610476723680996,3.9101028442382812,0.7117035228627037
43.610476723680996,3.9104461669921875,0.7578752209100809
43.610476723680996,3.9107894897460938,0.7766290240713544
43.610476723680996,3.9111328125,0.766814924321673
43.610476723680996,3.9114761352539062,0.7343216931418084
43.610476723680996,3.9118194580078125,0.6907286058005018
43.610476723680996,3.9121627807617188,0.6495762948160536
43.610476723680996,3.912506103515625,0.622413952812219
43.610476723680996,3.9128494262695312,0.6161081895626658
43.610476723680996,3.9131927490234375,0.6311150514828358
43.610476723680996,3.9135360717773438,0.6596486007256855
43.610476723680996,3.91387939453125,0.6849224948835895
43.610476723680996,3.9142227172851562,0.6852234648876084
43.610476723680996,3.9145660400390625,0.6433029190686459
43.610476723680996,3.9149093627929688,0.5551771249756873
43.610476723680996,3.915252685546875,0.43253476842675165
43.610476723680996,3.9155960083007812,0.29849227130462347
43.610476723680996,3.9159393310546875,0.17874950151187483
43.6102281417864,3.907012939453125,0.13682023819180716
43.6102281417864,3.9073562622070312,0.2080172700438617
43.6102281417864,3.9076995849609375,0.29418661799759016
43.6102281417864,3.9080429077148438,0.3905134370469245
43.6102281417864,3.90838623046875,0.49084647232422085
43.6102281417864,3.9087295532226562,0.5891232836791779
43.6102281417864,3.9090728759765625,0.6802299134789698
43.6102281417864,3.9094161987304688,0.759736976946785
43.6102281417864,3.909759521484375,0.8230671820294437
43.6102281417864,3.9101028442382812,0.8652794031384257
43.6102281417864,3.9104461669921875,0.8821401971641687
43.6102281417864,3.9107894897460938,0.8722541467584538
43.6102281417864,3.9111328125,0.8391025335669047
43.6102281417864,3.9114761352539062,0.7912759535861666
43.6102281417864,3.9118194580078125,0.740138667514724
43.6102281417864,3.9121627807617188,0.6961550131830305
43.6102281417864,3.912506103515625,0.6659326721737157
43.6102281417864,3.9128494262695312,0.6510839065414348
43.6102281417864,3.9131927490234375,0.6483065677688036
43.6102281417864,3.9135360717773438,0.6494018928037265
43.6102281417864,3.91387939453125,0.6416781707066536
43.6102281417864,3.9142227172851562,0.6111827186927193
43.6102281417864,3.9145660400390625,0.5489414418060751
43.6102281417864,3.9149093627929688,0.45608479247558475
43.6102281417864,3.915252685546875,0.34421495729161766
43.6102281417864,3.9155960083007812,0.2314081779824429
43.6102281417864,3.9159393310546875,0.13566436409058227
43.60997955886442,3.9066696166992188,0.1602455911967906
43.60997955886442,3.907012939453125,0.24612534717937276
43.60997955886442,3.9073562622070312,0.3493286392741111
43.60997955886442,3.9076995849609375,0.4625471416079738
43.60997955886442,3.9080429077148438,0.5765947772193031
43.60997955886442,3.90838623046875,0.682550108570555
43.60997955886442,3.9087295532226562,0.7735834028332648
43.60997955886442,3.9090728759765625,0.8456534945349564
43.60997955886442,3.9094161987304688,0.8967687360729597
43.60997955886442,3.909759521484375,0.9257378600570335
43.60997955886442,3.9101028442382812,0.9317597254487827
43.60997955886442,3.9104461669921875,0.9151662470859409
43.60997955886442,3.9107894897460938,0.8786381533056993
43.60997955886442,3.9111328125,0.8279401800660328
43.60997955886442,3.9114761352539062,0.7712695112862913
43.60997955886442,3.9118194580078125,0.7170727511417946
43.60997955886442,3.9121627807617188,0.6714701602704717
43.60997955886442,3.912506103515625,0.6367468818399242
43.60997955886442,3.9128494262695312,0.6114276995541938
43.60997955886442,3.9131927490234375,0.5911849118782435
43.60997955886442,3.9135360717773438,0.5694939362820928
43.60997955886442,3.91387939453125,0.5382874148464285
43.60997955886442,3.9142227172851562,0.49015754044956156
43.60997955886442,3.9145660400390625,0.42202696205885976
43.60997955886442,3.9149093627929688,0.33757449873716566
43.60997955886442,3.915252685546875,0.246446808870306
43.60997955886442,3.9155960083007812,0.16102295147541448
43.609730974915024,3.9059829711914062,0.10095521092885935
43.609730974915024,3.9063262939453125,0.17478253203389219
43.609730974915024,3.9066696166992188,0.27339544228606594
43.609730974915024,3.907012939453125,0.3914121696115958
43.609730974915024,3.9073562622070312,0.5186617229045658
43.609730974915024,3.9076995849609375,0.6425858686269756
43.609730974915024,3.9080429077148438,0.7513877832575995
43.609730974915024,3.90838623046875,0.8366114363342066
43.609730974915024,3.9087295532226562,0.8944097768101996
43.609730974915024,3.9090728759765625,0.9251834098050866
43.609730974915024,3.9094161987304688,0.9318088299106813
43.609730974915024,3.909759521484375,0.9177169518404013
43.609730974915024,3.9101028442382812,0.8861826775897111
43.609730974915024,3.9104461669921875,0.840772103087917
43.609730974915024,3.9107894897460938,0.7859313989587321
43.609730974915024,3.9111328125,0.7270064277347467
43.609730974915024,3.9114761352539062,0.6694755993050489
43.609730974915024,3.9118194580078125,0.6176196794165986
43.609730974915024,3.9121627807617188,0.5733986716257454
43.609730974915024,3.912506103515625,0.5362333121504916
43.609730974915024,3.9128494262695312,0.5036800935504004
43.609730974915024,3.9131927490234375,0.47232442007180403
43.609730974915024,3.9135360717773438,0.4382569512204748
43.609730974915024,3.91387939453125,0.3974406816281869
43.609730974915024,3.9142227172851562,0.34694072175748375
43.609730974915024,3.9145660400390625,0.2868037419884873
43.609730974915024,3.9149093627929688,0.22090305709683167
43.609730974915024,3.915252685546875,0.15585114355561366
43.609482389938236,3.9059829711914062,0.17524790177302202
43.609482389938236,3.9063262939453125,0.2845752889840575
43.609482389938236,3.9066696166992188,0.416244791795244
43.609482389938236,3.907012939453125,0.5565688635370358
43.609482389938236,3.9073562622070312,0.6888396726895617
43.609482389938236,3.9076995849609375,0.7977830849654742
43.609482389938236,3.9080429077148438,0.8732918817953939
43.609482389938236,3.90838623046875,0.9120231821561771
43.609482389938236,3.9087295532226562,0.9168091267827401
43.609482389938236,3.9090728759765625,0.8945361810026773
43.609482389938236,3.9094161987304688,0.8532952537793078
43.609482389938236,3.909759521484375,0.8001004324622486
43.609482389938236,3.9101028442382812,0.7402630418527176
43.609482389938236,3.9104461669921875,0.6779818527610089
43.609482389938236,3.9107894897460938,0.6168867040754147
43.609482389938236,3.9111328125,0.559977227635681
43.609482389938236,3.9114761352539062,0.5091893665286946
43.609482389938236,3.9118194580078125,0.465002401811907
43.609482389938236,3.9121627807617188,0.4264704527322873
43.609482389938236,3.912506103515625,0.3917478350746188
43.609482389938236,3.9128494262695312,0.3587922776703326
43.609482389938236,3.9131927490234375,0.3258043589779817
43.609482389938236,3.9135360717773438,0.2912305706650809
43.609482389938236,3.91387939453125,0.2537206728618384
43.609482389938236,3.9142227172851562,0.21264531974540116
43.609482389938236,3.9145660400390625,0.1689467032256256
43.609482389938236,3.9149093627929688,0.1253253928482973
43.60923380393403,3.9056396484375,0.1558762399294204
43.60923380393403,3.9059829711914062,0.27153519438331836
43.60923380393403,3.9063262939453125,0.41624112589698664
43.60923380393403,3.9066696166992188,0.57200566378236
43.60923380393403,3.907012939453125,0.7161794113161316
43.60923380393403,3.9073562622070312,0.8281452776353705
43.60923380393403,3.9076995849609375,0.8949074627280041
43.60923380393403,3.9080429077148438,0.9136272777608865
43.60923380393403,3.90838623046875,0.8903805632409248
43.60923380393403,3.9087295532226562,0.8365745581104135
43.60923380393403,3.9090728759765625,0.7650418160673444
43.60923380393403,3.9094161987304688,0.6868855888995251
43.60923380393403,3.909759521484375,0.6097591841534942
43.60923380393403,3.9101028442382812,0.5380046345415056
43.60923380393403,3.9104461669921875,0.4738670318038893
43.60923380393403,3.9107894897460938,0.4184307302927713
43.60923380393403,3.9111328125,0.37180799841663875
43.60923380393403,3.9114761352539062,0.33305054061973943
43.60923380393403,3.9118194580078125,0.3002956482341647
43.60923380393403,3.9121627807617188,0.2713026077917648
43.60923380393403,3.912506103515625,0.24412443832062874
43.60923380393403,3.9128494262695312,0.21753564170960146
43.60923380393403,3.9131927490234375,0.19101729532591002
43.60923380393403,3.9135360717773438,0.164413990027197
43.60923380393403,3.91387939453125,0.13764488623264332
43.60923380393403,3.9142227172851562,0.11083420982637812
43.60898521690244,3.9052963256835938,0.11693738170302374
43.60898521690244,3.9056396484375,0.22762359082322375
43.60898521690244,3.9059829711914062,0.37967638770655093
43.60898521690244,3.9063262939453125,0.5534438926277587
43.60898521690244,3.9066696166992188,0.7186355224399462
43.60898521690244,3.907012939453125,0.8452970131458555
43.60898521690244,3.9073562622070312,0.9134330924568816
43.60898521690244,3.9076995849609375,0.9181445810024671
43.60898521690244,3.9080429077148438,0.8689159849047071
43.60898521690244,3.90838623046875,0.7837096297906533
43.60898521690244,3.9087295532226562,0.6817081215361075
43.60898521690244,3.9090728759765625,0.5784540509321995
43.60898521690244,3.9094161987304688,0.48399459839166115
43.60898521690244,3.909759521484375,0.4030316993538221
43.60898521690244,3.9101028442382812,0.3364137205967277
43.60898521690244,3.9104461669921875,0.28306409043201664
43.60898521690244,3.9107894897460938,0.24125731583530394
43.60898521690244,3.9111328125,0.2089536820986078
43.60898521690244,3.9114761352539062,0.1837785183328988
43.60898521690244,3.9118194580078125,0.16319484474780208
43.60898521690244,3.9121627807617188,0.14496679483396
43.60898521690244,3.912506103515625,0.12761049689687345
43.60898521690244,3.9128494262695312,0.11053124111900062
43.60873662884344,3.9052963256835938,0.1591185028364398
43.60873662884344,3.9056396484375,0.3010751983423217
43.60873662884344,3.9059829711914062,0.4848931660920406
43.60873662884344,3.9063262939453125,0.6776067594768238
43.60873662884344,3.9066696166992188,0.8371950548475425
43.60873662884344,3.907012939453125,0.92946336249977
43.60873662884344,3.9073562622070312,0.9396157970536095
43.60873662884344,3.9076995849609375,0.8754619394552456
43.60873662884344,3.9080429077148438,0.7617980728312651
43.60873662884344,3.90838623046875,0.6284246695560832
43.60873662884344,3.9087295532226562,0.4991099764287585
43.60873662884344,3.9090728759765625,0.3873300398576794
43.60873662884344,3.9094161987304688,0.2977741628008623
43.60873662884344,3.909759521484375,0.2295769771335555
43.60873662884344,3.9101028442382812,0.17923444732728033
43.60873662884344,3.9104461669921875,0.14271500368919404
43.60873662884344,3.9107894897460938,0.11652019546895016
43.60848803975704,3.9052963256835938,0.1969576522586487
43.60848803975704,3.9056396484375,0.3650599457494297
43.60848803975704,3.9059829711914062,0.5725702835323696
43.60848803975704,3.9063262939453125,0.7740109086519168
43.60848803975704,3.9066696166992188,0.9178856272974155
43.60848803975704,3.907012939453125,0.9687666372410673
43.60848803975704,3.9073562622070312,0.9198540915922229
43.60848803975704,3.9076995849609375,0.7934942075166476
43.60848803975704,3.9080429077148438,0.6298773071299318
43.60848803975704,3.90838623046875,0.4683823470825771
43.60848803975704,3.9087295532226562,0.33326965977995704
43.60848803975704,3.9090728759765625,0.2317419096602513
43.60848803975704,3.9094161987304688,0.16048942073264386
43.60848803975704,3.909759521484375,0.11251445494919443
43.608239449643236,3.9049530029296875,0.10171122059220242
43.608239449643236,3.9052963256835938,0.22443516226505747
43.608239449643236,3.9056396484375,0.4105621839601476
43.608239449643236,3.9059829711914062,0.6325924680978626
43.608239449643236,3.9063262939453125,0.8353967197474786
43.608239449643236,3.9066696166992188,0.9609778714760532
43.608239449643236,3.907012939453125,0.9744705541527358
43.608239449643236,3.9073562622070312,0.8771519562125369
43.608239449643236,3.9076995849609375,0.7044255380914417
43.608239449643236,3.9080429077148438,0.5092145492446538
43.608239449643236,3.90838623046875,0.33718517872510756
43.608239449643236,3.9087295532226562,0.21008380439899202
43.608239449643236,3.9090728759765625,0.1271197460389739
43.607990858502035,3.9049530029296875,0.10833579121823651
43.607990858502035,3.9052963256835938,0.2383150903197244
43.607990858502035,3.9056396484375,0.43343435727131413
43.607990858502035,3.9059829711914062,0.6618058432277243
43.607990858502035,3.9063262939453125,0.862547409406422
43.607990858502035,3.9066696166992188,0.9739183045723258
43.607990858502035,3.907012939453125,0.9618441997235128
43.607990858502035,3.9073562622070312,0.8333489891408965
43.607990858502035,3.9076995849609375,0.6328878120364492
43.607990858502035,3.9080429077148438,0.4218843909660478
43.607990858502035,3.90838623046875,0.24941391807530852
43.607990858502035,3.9087295532226562,0.13402951002503666
43.607742266333425,3.9049530029296875,0.10840824487575827
43.607742266333425,3.9052963256835938,0.2391381802666577
43.607742266333425,3.9056396484375,0.43542970147798427
43.607742266333425,3.9059829711914062,0.6642696725864699
43.607742266333425,3.9063262939453125,0.8627475095029512
43.607742266333425,3.9066696166992188,0.967344339224892
43.607742266333425,3.907012939453125,0.9438794403629179
43.607742266333425,3.9073562622070312,0.8016650446731864
43.607742266333425,3.9076995849609375,0.5893821589366933
43.607742266333425,3.9080429077148438,0.37274113912097595
43.607742266333425,3.90838623046875,0.20260291403587585
43.60749367313742,3.9049530029296875,0.10381849500839695
43.60749367313742,3.9052963256835938,0.23079980747364273
43.60749367313742,3.9056396484375,0.4231615341942571
43.60749367313742,3.9059829711914062,0.6492930185167779
43.60749367313742,3.9063262939453125,0.8468910885412033
43.60749367313742,3.9066696166992188,0.9517322526183721
43.60749367313742,3.907012939453125,0.9283595374703496
43.60749367313742,3.9073562622070312,0.7853103147689253
43.60749367313742,3.9076995849609375,0.5715611311066585
43.60749367313742,3.9080429077148438,0.35407364620141657
43.60749367313742,3.90838623046875,0.18500752038817875
43.60724507891401,3.9052963256835938,0.21884879298511106
43.60724507891401,3.9056396484375,0.4053685988248257
43.60724507891401,3.9059829711914062,0.6279516114808544
43.60724507891401,3.9063262939453125,0.8261156734834416
43.60724507891401,3.9066696166992188,0.9353552526036681
43.60724507891401,3.907012939453125,0.9182347673822804
43.60724507891401,3.9073562622070312,0.7808380660790656
43.60724507891401,3.9076995849609375,0.5703169089667117
43.60724507891401,3.9080429077148438,0.35334312046015676
43.60724507891401,3.90838623046875,0.18336788747083047
43.60699648366321,3.9052963256835938,0.208452525737361
43.60699648366321,3.9056396484375,0.3899061144152482
43.60699648366321,3.9059829711914062,0.6096932987117517
43.60699648366321,3.9063262939453125,0.8091505635294174
43.60699648366321,3.9066696166992188,0.9235980578870582
43.60699648366321,3.907012939453125,0.9136802112529173
43.60699648366321,3.9073562622070312,0.7828746224879997
43.60699648366321,3.9076995849609375,0.5761372725592027
43.60699648366321,3.9080429077148438,0.3594736767424371
43.60699648366321,3.90838623046875,0.18755011494481386
43.60674788738501,3.9052963256835938,0.20325621121507859
43.60674788738501,3.9056396484375,0.38212648707403185
43.60674788738501,3.9059829711914062,0.6006830350176698
43.60674788738501,3.9063262939453125,0.8013449358942422
43.60674788738501,3.9066696166992188,0.9193230296077615
43.60674788738501,3.907012939453125,0.9140566926615653
43.60674788738501,3.9073562622070312,0.7873374579311876
43.60674788738501,3.9076995849609375,0.582668056762672
43.60674788738501,3.9080429077148438,0.3656345048082655
43.60674788738501,3.90838623046875,0.19179522743850613
43.606499290079405,3.9052963256835938,0.20559841787010852
43.606499290079405,3.9056396484375,0.38519865575413853
43.606499290079405,3.9059829711914062,0.604284059605047
43.606499290079405,3.9063262939453125,0.8053597765247528
43.606499290079405,3.9066696166992188,0.9237463574061461
43.606499290079405,3.907012939453125,0.918837794480068
43.606499290079405,3.9073562622070312,0.7921855612222662
43.606499290079405,3.9076995849609375,0.5870182074090309
43.606499290079405,3.9080429077148438,0.3689114705865819
43.606499290079405,3.90838623046875,0.19378689997996573
43.60625069174642,3.9052963256835938,0.21724698410679463
43.60625069174642,3.9056396484375,0.4011588036720519
43.60625069174642,3.9059829711914062,0.6222470413770894
43.60625069174642,3.9063262939453125,0.8221659631901626
43.60625069174642,3.9066696166992188,0.9368750506184117
43.60625069174642,3.907012939453125,0.9272314374815287
43.60625069174642,3.9073562622070312,0.7962143200975595
43.60625069174642,3.9076995849609375,0.5879838467656304
43.60625069174642,3.9080429077148438,0.36836887426744735
43.60625069174642,3.90838623046875,0.19292318742314526
43.60600209238602,3.9049530029296875,0.11077395802974126
43.60600209238602,3.9052963256835938,0.23930897011826313
43.60600209238602,3.9056396484375,0.4308440354686369
43.60600209238602,3.9059829711914062,0.6546073146593723
43.60600209238602,3.9063262939453125,0.8507204724742787
43.60600209238602,3.9066696166992188,0.9567130277596803
43.60600209238602,3.907012939453125,0.9367505019397301
43.60600209238602,3.9073562622070312,0.7970574588130211
43.60600209238602,3.9076995849609375,0.5838105310750222
43.60600209238602,3.9080429077148438,0.36301024985072317
43.60600209238602,3.90838623046875,0.1887862272871372
43.605753491998236,3.9049530029296875,0.13020219383898093
43.605753491998236,3.9052963256835938,0.271134097715571
43.605753491998236,3.9056396484375,0.47255593924137296
43.605753491998236,3.9059829711914062,0.6983433979220013
43.605753491998236,3.9063262939453125,0.8867950647452941
43.605753491998236,3.9066696166992188,0.9782780340142674
43.605753491998236,3.907012939453125,0.9423171647667685
43.605753491998236,3.9073562622070312,0.7902772005131099
43.605753491998236,3.9076995849609375,0.5712674817493276
43.605753491998236,3.9080429077148438,0.3509397545786938
43.605753491998236,3.90838623046875,0.1805067856861487
43.60550489058304,3.9049530029296875,0.1542635570107478
43.60550489058304,3.9052963256835938,0.3096398313489977
43.60550489058304,3.9056396484375,0.5214567657200785
43.60550489058304,3.9059829711914062,0.7471629512712339
43.60550489058304,3.9063262939453125,0.9233832206925878
43.60550489058304,3.9066696166992188,0.9946589758572792
43.60550489058304,3.907012939453125,0.9377787955412328
43.60550489058304,3.9073562622070312,0.7709831319966856
43.60550489058304,3.9076995849609375,0.5469993836029011
43.60550489058304,3.9080429077148438,0.33024519683667225
43.60550489058304,3.90838623046875,0.16720853981044773
43.60525628814046,3.9049530029296875,0.18030814259623948
43.60525628814046,3.9052963256835938,0.35017705193238957
43.60525628814046,3.9056396484375,0.5710049973827864
43.60525628814046,3.9059829711914062,0.7935511787873976
43.60525628814046,3.9063262939453125,0.9532884454792453
43.60525628814046,3.9066696166992188,1.0
43.60525628814046,3.907012939453125,0.9190669869930433
43.60525628814046,3.9073562622070312,0.7368272093180069
43.60525628814046,3.9076995849609375,0.5099731947177297
43.60525628814046,3.9080429077148438,0.30066471829549374
43.60525628814046,3.90838623046875,0.14893437963821496
43.60500768467048,3.9049530029296875,0.205743755424248
43.60500768467048,3.9052963256835938,0.38829155671122495
43.60500768467048,3.9056396484375,0.615248706422136
43.60500768467048,3.9059829711914062,0.8312810842132916
43.60500768467048,3.9063262939453125,0.9715160386697914
43.60500768467048,3.9066696166992188,0.9916005880740161
43.60500768467048,3.907012939453125,0.8859985740080438
43.60500768467048,3.9073562622070312,0.6895282226342311
43.60500768467048,3.9076995849609375,0.46269003610529785
43.60500768467048,3.9080429077148438,0.2644346111010224
43.60500768467048,3.90838623046875,0.12714476547257747
43.60475908017311,3.9046096801757812,0.10318278913722172
43.60475908017311,3.9049530029296875,0.22902726487105546
43.60475908017311,3.9052963256835938,0.4210809710960203
43.60475908017311,3.9056396484375,0.6502528623710276
43.60475908017311,3.9059829711914062,0.856475385505458
43.60475908017311,3.9063262939453125,0.9756319473832372
43.60475908017311,3.9066696166992188,0.9695125092034806
43.60475908017311,3.907012939453125,0.8413327763772904
43.60475908017311,3.9073562622070312,0.6337553083641427
43.60475908017311,3.9076995849609375,0.41022571293422944
43.60475908017311,3.9080429077148438,0.22565112921899247
43.60475908017311,3.90838623046875,0.10438505523877065
43.60451047464834,3.9046096801757812,0.11605304451209472
43.60451047464834,3.9049530029296875,0.25002788269459547
43.60451047464834,3.9052963256835938,0.447578823840064
43.60451047464834,3.9056396484375,0.674264282060156
43.60451047464834,3.9059829711914062,0.8672497354147286
43.60451047464834,3.9063262939453125,0.9646610789015456
43.60451047464834,3.9066696166992188,0.934658020941183
43.60451047464834,3.907012939453125,0.7883060925134117
43.60451047464834,3.9073562622070312,0.574489433754807
43.60451047464834,3.9076995849609375,0.357908160715073
43.60451047464834,3.9080429077148438,0.1886040145383841
43.604261868096174,3.9046096801757812,0.12981639755174354
43.604261868096174,3.9049530029296875,0.2696833281239548
43.604261868096174,3.9052963256835938,0.4682562649257139
43.604261868096174,3.9056396484375,0.6870328706342573
43.604261868096174,3.9059829711914062,0.8627883648500392
43.604261868096174,3.9063262939453125,0.9378064952683988
43.604261868096174,3.9066696166992188,0.8870728568462608
43.604261868096174,3.907012939453125,0.7283813918011784
43.604261868096174,3.9073562622070312,0.5144975934246317
43.604261868096174,3.9076995849609375,0.30895163037787554
43.604261868096174,3.9080429077148438,0.15597841895133366
43.60401326051662,3.9046096801757812,0.14555950870893136
43.60401326051662,3.9049530029296875,0.289234630970033
43.60401326051662,3.9052963256835938,0.48415531370995724
43.60401326051662,3.9056396484375,0.6890467226074581
43.60401326051662,3.9059829711914062,0.8428370842380613
43.60401326051662,3.9063262939453125,0.894186785087015
43.60401326051662,3.9066696166992188,0.8256809982871798
43.60401326051662,3.907012939453125,0.6607984503668021
43.60401326051662,3.9073562622070312,0.45356661251834396
43.60401326051662,3.9076995849609375,0.26353850865030554
43.60401326051662,3.9080429077148438,0.12805442337704087
43.60376465190967,3.9046096801757812,0.16373206546095107
43.60376465190967,3.9049530029296875,0.3092868470528761
43.60376465190967,3.9052963256835938,0.49604205468489154
43.60376465190967,3.9056396484375,0.6811614552049597
43.60376465190967,3.9059829711914062,0.8081248666206892
43.60376465190967,3.9063262939453125,0.8341246695838804
43.60376465190967,3.9066696166992188,0.7502163553666465
43.60376465190967,3.907012939453125,0.5846895789650265
43.60376465190967,3.9073562622070312,0.39038316862951233
43.60376465190967,3.9076995849609375,0.2202155306422889
43.60376465190967,3.9080429077148438,0.10358543211966487
43.60351604227533,3.9046096801757812,0.1830865866947247
43.60351604227533,3.9049530029296875,0.3284656015905331
43.60351604227533,3.9052963256835938,0.503100803405415
43.60351604227533,3.9056396484375,0.6637779486780462
43.60351604227533,3.9059829711914062,0.7604363140845976
43.60351604227533,3.9063262939453125,0.7603231998417137
43.60351604227533,3.9066696166992188,0.6634084335696318
43.60351604227533,3.907012939453125,0.5018922964397137
43.60351604227533,3.9073562622070312,0.3254278973498168
43.60351604227533,3.9076995849609375,0.17835325604541302
43.603267431613595,3.9046096801757812,0.19976573479213325
43.603267431613595,3.9049530029296875,0.342122304365572
43.603267431613595,3.9052963256835938,0.5013615333724699
43.603267431613595,3.9056396484375,0.635206263316599
43.603267431613595,3.9059829711914062,0.7012028909629795
43.603267431613595,3.9063262939453125,0.6769778194539694
43.603267431613595,3.9066696166992188,0.5708092545444357
43.603267431613595,3.907012939453125,0.41749430883734423
43.603267431613595,3.9073562622070312,0.26201597606449806
43.603267431613595,3.9076995849609375,0.1393113662112213
43.60301881992447,3.904266357421875,0.1063516358780108
43.60301881992447,3.9046096801757812,0.20792222119713238
43.60301881992447,3.9049530029296875,0.3430203592480216
43.60301881992447,3.9052963256835938,0.4841086076777256
43.60301881992447,3.9056396484375,0.5914072619029555
43.60301881992447,3.9059829711914062,0.6303642190858372
43.60301881992447,3.9063262939453125,0.5878585951136361
43.60301881992447,3.9066696166992188,0.4784946703792186
43.60301881992447,3.907012939453125,0.3376832691615007
43.60301881992447,3.9073562622070312,0.20470375423411888
43.60301881992447,3.9076995849609375,0.10551105921673232
43.60277020720795,3.904266357421875,0.10614539562882798
43.60277020720795,3.9046096801757812,0.20233341352191006
43.60277020720795,3.9049530029296875,0.3247503541717413
43.60277020720795,3.9052963256835938,0.44537290173416993
43.60277020720795,3.9056396484375,0.5286089757862144
43.60277020720795,3.9059829711914062,0.5473662488147272
43.60277020720795,3.9063262939453125,0.49548227326082367
43.60277020720795,3.9066696166992188,0.39082154800181496
43.60277020720795,3.907012939453125,0.2669277365796277
43.60277020720795,3.9073562622070312,0.1567436274287674
43.60252159346405,3.9046096801757812,0.1812234454671504
43.60252159346405,3.9049530029296875,0.2854407328446284
43.60252159346405,3.9052963256835938,0.3838568930604203
43.60252159346405,3.9056396484375,0.44657138338674
43.60252159346405,3.9059829711914062,0.4530724047904673
43.60252159346405,3.9063262939453125,0.40142974363909834
43.60252159346405,3.9066696166992188,0.30944439079071373
43.60252159346405,3.907012939453125,0.20636024758345997
43.60252159346405,3.9073562622070312,0.118519725721868
43.602272978692746,3.9046096801757812,0.14735949677810267
43.602272978692746,3.9049530029296875,0.22921749729961188
43.602272978692746,3.9052963256835938,0.30458227484601463
43.602272978692746,3.9056396484375,0.3502167470127332
43.602272978692746,3.9059829711914062,0.35120598280382576
43.602272978692746,3.9063262939453125,0.307500079057174
43.602272978692746,3.9066696166992188,0.23417150674781056
43.602272978692746,3.907012939453125,0.15439141786920782
43.602024362894056,3.9046096801757812,0.10725663608445919
43.602024362894056,3.9049530029296875,0.1653045384113175
43.602024362894056,3.9052963256835938,0.21825688495758308
43.602024362894056,3.9056396484375,0.24970490795828187
43.602024362894056,3.9059829711914062,0.24940194278197128
43.602024362894056,3.9063262939453125,0.2176805702989258
43.602024362894056,3.9066696166992188,0.16547634098195632
43.602024362894056,3.907012939453125,0.10921148698477115
43.60177574606797,3.9049530029296875,0.10518257004310656
43.60177574606797,3.9052963256835938,0.13842471393271374
43.60177574606797,3.9056396484375,0.1583498894576244
43.60177574606797,3.9059829711914062,0.158458139323467
43.60177574606797,3.9063262939453125,0.13884345200158563
43.60177574606797,3.9066696166992188,0.10625258601610574
