lat,lon,intensity
43.644025847699496,3.73260498046875,0.10174876370867286
43.644025847699496,3.7353515625,0.10625482798798135
43.644025847699496,3.73809814453125,0.11305644098844854
43.644025847699496,3.7408447265625,0.1212422472892208
43.644025847699496,3.74359130859375,0.1287519887120639
43.644025847699496,3.746337890625,0.1330688121087382
43.644025847699496,3.74908447265625,0.13211512839235226
43.644025847699496,3.7518310546875,0.1249185653772807
43.644025847699496,3.75457763671875,0.11186049121037246
43.64203827340191,3.71337890625,0.10234267582925112
43.64203827340191,3.71612548828125,0.11792299040979994
43.64203827340191,3.7188720703125,0.13154189360313523
43.64203827340191,3.72161865234375,0.14240822500585854
43.64203827340191,3.724365234375,0.15020680466106795
43.64203827340191,3.72711181640625,0.15530597646716396
43.64203827340191,3.7298583984375,0.15885950391906478
43.64203827340191,3.73260498046875,0.16260928101960337
43.64203827340191,3.7353515625,0.1682401666112743
43.64203827340191,3.73809814453125,0.17650350356118588
43.64203827340191,3.7408447265625,0.1866247294690492
43.64203827340191,3.74359130859375,0.19639154834852157
43.64203827340191,3.746337890625,0.20287685578854517
43.64203827340191,3.74908447265625,0.2033668890642448
43.64203827340191,3.7518310546875,0.19606171970234298
43.64203827340191,3.75457763671875,0.18048797728980678
43.64203827340191,3.75732421875,0.1577269427147371
43.64203827340191,3.76007080078125,0.130291439256882
43.64203827340191,3.7628173828125,0.10149574459318607
43.640050633346945,3.7078857421875,0.1079474812083982
43.640050633346945,3.71063232421875,0.12836507898031105
43.640050633346945,3.71337890625,0.14891715310726225
43.640050633346945,3.71612548828125,0.16839515727087206
43.640050633346945,3.7188720703125,0.18551630108637984
43.640050633346945,3.72161865234375,0.19925817374192029
43.640050633346945,3.724365234375,0.20918500132157167
43.640050633346945,3.72711181640625,0.21565861676121822
43.640050633346945,3.7298583984375,0.21990317128632317
43.640050633346945,3.73260498046875,0.2237811757837679
43.640050633346945,3.7353515625,0.22915169319163536
43.640050633346945,3.73809814453125,0.2370279947317438
43.640050633346945,3.7408447265625,0.24701866197536176
43.640050633346945,3.74359130859375,0.25738283314393073
43.640050633346945,3.746337890625,0.26558119636149097
43.640050633346945,3.74908447265625,0.2688882901424563
43.640050633346945,3.7518310546875,0.2647847021741151
43.640050633346945,3.75457763671875,0.25138851083976715
43.640050633346945,3.75732421875,0.22821981990322643
43.640050633346945,3.76007080078125,0.19685776192165935
43.640050633346945,3.7628173828125,0.16080599035892182
43.640050633346945,3.76556396484375,0.1246255558506531
43.638062927534826,3.702392578125,0.11941973172570101
43.638062927534826,3.70513916015625,0.139573511331554
43.638062927534826,3.7078857421875,0.15999815682291665
43.638062927534826,3.71063232421875,0.1804247530197442
43.638062927534826,3.71337890625,0.2002578432522676
43.638062927534826,3.71612548828125,0.21856938819310529
43.638062927534826,3.7188720703125,0.23430243409454463
43.638062927534826,3.72161865234375,0.24663152243228254
43.638062927534826,3.724365234375,0.2552808257037888
43.638062927534826,3.72711181640625,0.26066799119477013
43.638062927534826,3.7298583984375,0.26388990208954755
43.638062927534826,3.73260498046875,0.2665125977136632
43.638062927534826,3.7353515625,0.2701008314793178
43.638062927534826,3.73809814453125,0.2756573958652524
43.638062927534826,3.7408447265625,0.28329541332549735
43.638062927534826,3.74359130859375,0.29229521237448886
43.638062927534826,3.746337890625,0.30132906364208595
43.638062927534826,3.74908447265625,0.30847086435016213
43.638062927534826,3.7518310546875,0.31095747785081435
43.638062927534826,3.75457763671875,0.3054004503741588
43.638062927534826,3.75732421875,0.2890588969145277
43.638062927534826,3.76007080078125,0.26150521654836056
43.638062927534826,3.7628173828125,0.2253557517925758
43.638062927534826,3.76556396484375,0.18566274515928544
43.638062927534826,3.768310546875,0.1483062220706219
43.638062927534826,3.77105712890625,0.1177665408857133
43.636075155965784,3.69415283203125,0.10924596256566348
43.636075155965784,3.6968994140625,0.13417397493967956
43.636075155965784,3.69964599609375,0.15839213224727416
43.636075155965784,3.702392578125,0.18030277554951887
43.636075155965784,3.70513916015625,0.19938751500430288
43.636075155965784,3.7078857421875,0.21595565553787666
43.636075155965784,3.71063232421875,0.2305262665719151
43.636075155965784,3.71337890625,0.24337047974091164
43.636075155965784,3.71612548828125,0.2543760840911041
43.636075155965784,3.7188720703125,0.2631871757327095
43.636075155965784,3.72161865234375,0.26951552688961455
43.636075155965784,3.724365234375,0.2734068120943704
43.636075155965784,3.72711181640625,0.2753057824544412
43.636075155965784,3.7298583984375,0.27596515378261205
43.636075155965784,3.73260498046875,0.27628765626394297
43.636075155965784,3.7353515625,0.2771362911042656
43.636075155965784,3.73809814453125,0.27920955160788746
43.636075155965784,3.7408447265625,0.2830686365542626
43.636075155965784,3.74359130859375,0.2892371575791594
43.636075155965784,3.746337890625,0.2980658071580389
43.636075155965784,3.74908447265625,0.30905982241780966
43.636075155965784,3.7518310546875,0.3198813857743417
43.636075155965784,3.75457763671875,0.32613553805462797
43.636075155965784,3.75732421875,0.32290783706484844
43.636075155965784,3.76007080078125,0.30730296483672176
43.636075155965784,3.7628173828125,0.2801248111383003
43.636075155965784,3.76556396484375,0.245789062269065
43.636075155965784,3.768310546875,0.21064110572716266
43.636075155965784,3.77105712890625,0.18014862975539636
43.636075155965784,3.7738037109375,0.1563246899739249
43.636075155965784,3.77655029296875,0.13729980805524392
43.636075155965784,3.779296875,0.11938019270363937
43.63408731864002,3.68865966796875,0.10349634619062005
43.63408731864002,3.69140625,0.1306475184175279
43.63408731864002,3.69415283203125,0.1612565895762369
43.63408731864002,3.6968994140625,0.19182769800379398
43.63408731864002,3.69964599609375,0.21865577281043322
43.63408731864002,3.702392578125,0.23917421235185823
43.63408731864002,3.70513916015625,0.2527657726541503
43.63408731864002,3.7078857421875,0.2604540348531531
43.63408731864002,3.71063232421875,0.2639368243577087
43.63408731864002,3.71337890625,0.26477748982970906
43.63408731864002,3.71612548828125,0.2640463708600923
43.63408731864002,3.7188720703125,0.26232489426525646
43.63408731864002,3.72161865234375,0.2599382899342838
43.63408731864002,3.724365234375,0.25719667295711457
43.63408731864002,3.72711181640625,0.2544420854946287
43.63408731864002,3.7298583984375,0.2519282011566336
43.63408731864002,3.73260498046875,0.24973186521771865
43.63408731864002,3.7353515625,0.24784505988537242
43.63408731864002,3.73809814453125,0.24647923637338143
43.63408731864002,3.7408447265625,0.246441826635069
43.63408731864002,3.74359130859375,0.24930320284645807
43.63408731864002,3.746337890625,0.2569954681535719
43.63408731864002,3.74908447265625,0.2706208205499258
43.63408731864002,3.7518310546875,0.2888343771491213
43.63408731864002,3.75457763671875,0.3071428302469866
43.63408731864002,3.75732421875,0.31935717066183233
43.63408731864002,3.76007080078125,0.3205399321429133
43.63408731864002,3.7628173828125,0.3093683910257538
43.63408731864002,3.76556396484375,0.288658510271576
43.63408731864002,3.768310546875,0.26400815495717667
43.63408731864002,3.77105712890625,0.2409174573881198
43.63408731864002,3.7738037109375,0.2217247372235021
43.63408731864002,3.77655029296875,0.20456453599075347
43.63408731864002,3.779296875,0.18524320059382338
43.63408731864002,3.78204345703125,0.16046234396739142
43.63408731864002,3.7847900390625,0.12997096992471885
43.63408731864002,3.89190673828125,0.12225009851868887
43.63408731864002,3.8946533203125,0.14700149539028337
43.63408731864002,3.89739990234375,0.16010678047972218
43.63408731864002,3.900146484375,0.1577605792468018
43.63408731864002,3.90289306640625,0.14051656684362052
43.63408731864002,3.9056396484375,0.11325085023933588
43.63209941555776,3.6859130859375,0.11422355124087653
43.63209941555776,3.68865966796875,0.13934325387096017
43.63209941555776,3.69140625,0.17057393189242961
43.63209941555776,3.69415283203125,0.20475634784527574
43.63209941555776,3.6968994140625,0.23715275886074047
43.63209941555776,3.69964599609375,0.26282901826438776
43.63209941555776,3.702392578125,0.27844719849261473
43.63209941555776,3.70513916015625,0.2834001052727053
43.63209941555776,3.7078857421875,0.2794984659887445
43.63209941555776,3.71063232421875,0.26971551846810443
43.63209941555776,3.71337890625,0.2570194749232132
43.63209941555776,3.71612548828125,0.24372476035728888
43.63209941555776,3.7188720703125,0.23129570549671258
43.63209941555776,3.72161865234375,0.2204930085812352
43.63209941555776,3.724365234375,0.21165704347021214
43.63209941555776,3.72711181640625,0.20484629874872468
43.63209941555776,3.7298583984375,0.1997723770800402
43.63209941555776,3.73260498046875,0.1957806342159893
43.63209941555776,3.7353515625,0.1921232131180101
43.63209941555776,3.73809814453125,0.18852949582050002
43.63209941555776,3.7408447265625,0.18579499323427484
43.63209941555776,3.74359130859375,0.1860051746368275
43.63209941555776,3.746337890625,0.1920455792038657
43.63209941555776,3.74908447265625,0.20623111011333675
43.63209941555776,3.7518310546875,0.22842910055224086
43.63209941555776,3.75457763671875,0.25498997389166256
43.63209941555776,3.75732421875,0.27980319213070454
43.63209941555776,3.76007080078125,0.29704378167963913
43.63209941555776,3.7628173828125,0.3037089424875474
43.63209941555776,3.76556396484375,0.3006424192170163
43.63209941555776,3.768310546875,0.2918239934176779
43.63209941555776,3.77105712890625,0.28196858627990407
43.63209941555776,3.7738037109375,0.27335789501524144
43.63209941555776,3.77655029296875,0.2640743628326619
43.63209941555776,3.779296875,0.2492586928772821
43.63209941555776,3.78204345703125,0.22456322343277776
43.63209941555776,3.7847900390625,0.1891567724402868
43.63209941555776,3.78753662109375,0.1464006546556138
43.63209941555776,3.790283203125,0.10244829425638334
43.63209941555776,3.88641357421875,0.10443083771898354
43.63209941555776,3.88916015625,0.15295746539598254
43.63209941555776,3.89190673828125,0.20368538097869468
43.63209941555776,3.8946533203125,0.24597368829139601
43.63209941555776,3.89739990234375,0.26940330270128177
43.63209941555776,3.900146484375,0.26755889483244194
43.63209941555776,3.90289306640625,0.24084155318245906
43.63209941555776,3.9056396484375,0.19661307605996547
43.63209941555776,3.90838623046875,0.14607846648248213
43.630111446719205,3.67767333984375,0.10172930565223298
43.630111446719205,3.680419921875,0.10896962763156084
43.630111446719205,3.68316650390625,0.12034536940364464
43.630111446719205,3.6859130859375,0.13788830756630713
43.630111446719205,3.68865966796875,0.16253767470875874
43.630111446719205,3.69140625,0.19308140566297224
43.630111446719205,3.69415283203125,0.2259194241643322
43.630111446719205,3.6968994140625,0.25572158061107486
43.630111446719205,3.69964599609375,0.27694635315635974
43.630111446719205,3.702392578125,0.28585072971365394
43.630111446719205,3.70513916015625,0.28184972534379243
43.630111446719205,3.7078857421875,0.26730115012641775
43.630111446719205,3.71063232421875,0.2461451373082126
43.630111446719205,3.71337890625,0.22248347206865587
43.630111446719205,3.71612548828125,0.19963253437044437
43.630111446719205,3.7188720703125,0.1796752780810138
43.630111446719205,3.72161865234375,0.1635051580150999
43.630111446719205,3.724365234375,0.15120685568148517
43.630111446719205,3.72711181640625,0.14239641820133228
43.630111446719205,3.7298583984375,0.1363092936633111
43.630111446719205,3.73260498046875,0.13184481594271572
43.630111446719205,3.7353515625,0.1278698715676365
43.630111446719205,3.73809814453125,0.12381287082297288
43.630111446719205,3.7408447265625,0.1202595334609994
43.630111446719205,3.74359130859375,0.11918999375727066
43.630111446719205,3.746337890625,0.12357469191853482
43.630111446719205,3.74908447265625,0.13618724608252852
43.630111446719205,3.7518310546875,0.1578942646950782
43.630111446719205,3.75457763671875,0.18647107356500126
43.630111446719205,3.75732421875,0.2171179492024523
43.630111446719205,3.76007080078125,0.2445060544824927
43.630111446719205,3.7628173828125,0.264952306529149
43.630111446719205,3.76556396484375,0.2776839788537002
43.630111446719205,3.768310546875,0.2848891107563053
43.630111446719205,3.77105712890625,0.29017784612838415
43.630111446719205,3.7738037109375,0.2956611644267857
43.630111446719205,3.77655029296875,0.29944265618871624
43.630111446719205,3.779296875,0.29587943155515495
43.630111446719205,3.78204345703125,0.2789304404120088
43.630111446719205,3.7847900390625,0.24605833482872064
43.630111446719205,3.78753662109375,0.19994221313904445
43.630111446719205,3.790283203125,0.14762964699991765
43.630111446719205,3.8836669921875,0.10476597425966264
43.630111446719205,3.88641357421875,0.16418953250069865
43.630111446719205,3.88916015625,0.23598533559642976
43.630111446719205,3.89190673828125,0.309167232462079
43.630111446719205,3.8946533203125,0.3691382910282509
43.630111446719205,3.89739990234375,0.40191591368420526
43.630111446719205,3.900146484375,0.39891233565522066
43.630111446719205,3.90289306640625,0.3606468787059665
43.630111446719205,3.9056396484375,0.2970069345315823
43.630111446719205,3.90838623046875,0.22328198326869192
43.630111446719205,3.9111328125,0.15454897839930665
43.630111446719205,3.91387939453125,0.10149301613866127
43.62812341212461,3.6529541015625,0.10217011257312254
43.62812341212461,3.65570068359375,0.10393702216220009
43.62812341212461,3.658447265625,0.10527248107729668
43.62812341212461,3.66119384765625,0.10633250289450936
43.62812341212461,3.6639404296875,0.10736714907602289
43.62812341212461,3.66668701171875,0.108637418025243
43.62812341212461,3.66943359375,0.1103102117799279
43.62812341212461,3.67218017578125,0.11241038743436885
43.62812341212461,3.6749267578125,0.11493463848184116
43.62812341212461,3.67767333984375,0.11817250584230977
43.62812341212461,3.680419921875,0.12310949653134637
43.62812341212461,3.68316650390625,0.13152115148105506
43.62812341212461,3.6859130859375,0.1453421753901176
43.62812341212461,3.68865966796875,0.16547671858187468
43.62812341212461,3.69140625,0.1908037956074831
43.62812341212461,3.69415283203125,0.21794019435004355
43.62812341212461,3.6968994140625,0.24182039096081284
43.62812341212461,3.69964599609375,0.25708141014281694
43.62812341212461,3.702392578125,0.25998076273119924
43.62812341212461,3.70513916015625,0.2498338389150403
43.62812341212461,3.7078857421875,0.22901683100534379
43.62812341212461,3.71063232421875,0.2017655089986682
43.62812341212461,3.71337890625,0.17271157731975303
43.62812341212461,3.71612548828125,0.14571613872658742
43.62812341212461,3.7188720703125,0.12315649177079885
43.62812341212461,3.72161865234375,0.10582621636101076
43.62812341212461,3.75457763671875,0.12059776548702249
43.62812341212461,3.75732421875,0.14951498212686218
43.62812341212461,3.76007080078125,0.17880656340465179
43.62812341212461,3.7628173828125,0.20518711296546163
43.62812341212461,3.76556396484375,0.22714488728331875
43.62812341212461,3.768310546875,0.24561611171917316
43.62812341212461,3.77105712890625,0.2633801113259207
43.62812341212461,3.7738037109375,0.2826020675271273
43.62812341212461,3.77655029296875,0.3017058483733433
43.62812341212461,3.779296875,0.3144536863822993
43.62812341212461,3.78204345703125,0.3128080083908561
43.62812341212461,3.7847900390625,0.29151561148742006
43.62812341212461,3.78753662109375,0.2510285026544249
43.62812341212461,3.790283203125,0.19768408628680273
43.62812341212461,3.79302978515625,0.1416180278612861
43.62812341212461,3.84246826171875,0.10960614724720139
43.62812341212461,3.84521484375,0.12126891955860529
43.62812341212461,3.84796142578125,0.12352564261936379
43.62812341212461,3.8507080078125,0.11742821651462312
43.62812341212461,3.85345458984375,0.10604663316432525
43.62812341212461,3.88092041015625,0.1045623874127945
43.62812341212461,3.8836669921875,0.165166626801293
43.62812341212461,3.88641357421875,0.24605349144867514
43.62812341212461,3.88916015625,0.3389541811099658
43.62812341212461,3.89190673828125,0.4296158042932677
43.62812341212461,3.8946533203125,0.5009243976903265
43.62812341212461,3.89739990234375,0.5372790440623291
43.62812341212461,3.900146484375,0.5294957953804265
43.62812341212461,3.90289306640625,0.47874891005494397
43.62812341212461,3.9056396484375,0.3968070336114974
43.62812341212461,3.90838623046875,0.30174567914863326
43.62812341212461,3.9111328125,0.2118933368895789
43.62812341212461,3.91387939453125,0.1409001103417403
43.62613531177414,3.614501953125,0.10873592885513378
43.62613531177414,3.61724853515625,0.12490677960646085
43.62613531177414,3.6199951171875,0.13431991955846262
43.62613531177414,3.62274169921875,0.1356613057345611
43.62613531177414,3.62548828125,0.13051471184199265
43.62613531177414,3.62823486328125,0.12248702101275658
43.62613531177414,3.6309814453125,0.11531806371382239
43.62613531177414,3.63372802734375,0.11107448932799222
43.62613531177414,3.636474609375,0.10970225970717692
43.62613531177414,3.63922119140625,0.10999157670967674
43.62613531177414,3.6419677734375,0.11080722647121032
43.62613531177414,3.64471435546875,0.11163102420259777
43.62613531177414,3.6474609375,0.11240539877504137
43.62613531177414,3.65020751953125,0.11317403038933763
43.62613531177414,3.6529541015625,0.113898611218447
43.62613531177414,3.65570068359375,0.11448936778212558
43.62613531177414,3.658447265625,0.11490654934300697
43.62613531177414,3.66119384765625,0.11522477831421615
43.62613531177414,3.6639404296875,0.11562491250688288
43.62613531177414,3.66668701171875,0.116287551272695
43.62613531177414,3.66943359375,0.11723671691395436
43.62613531177414,3.67218017578125,0.11829016516077336
43.62613531177414,3.6749267578125,0.11923238167454053
43.62613531177414,3.67767333984375,0.12017731305101138
43.62613531177414,3.680419921875,0.12193258838569447
43.62613531177414,3.68316650390625,0.1260418605154449
43.62613531177414,3.6859130859375,0.1342262090450771
43.62613531177414,3.68865966796875,0.14739778505897777
43.62613531177414,3.69140625,0.16484430683379203
43.62613531177414,3.69415283203125,0.1840054023886866
43.62613531177414,3.6968994140625,0.2008535824775069
43.62613531177414,3.69964599609375,0.21089263549652246
43.62613531177414,3.702392578125,0.2106866240264124
43.62613531177414,3.70513916015625,0.19921748586521174
43.62613531177414,3.7078857421875,0.17820456167696838
43.62613531177414,3.71063232421875,0.15133293594658062
43.62613531177414,3.71337890625,0.1230133077202581
43.62613531177414,3.76007080078125,0.11684848333174076
43.62613531177414,3.7628173828125,0.14123804054115502
43.62613531177414,3.76556396484375,0.1643504930959786
43.62613531177414,3.768310546875,0.18676796252020156
43.62613531177414,3.77105712890625,0.21108308786516292
43.62613531177414,3.7738037109375,0.23995301892421247
43.62613531177414,3.77655029296875,0.2726118571500121
43.62613531177414,3.779296875,0.3028532820158755
43.62613531177414,3.78204345703125,0.3210625077175192
43.62613531177414,3.7847900390625,0.31897972967258736
43.62613531177414,3.78753662109375,0.2936256885677427
43.62613531177414,3.790283203125,0.24876086305950235
43.62613531177414,3.79302978515625,0.19383362568091606
43.62613531177414,3.7957763671875,0.14018408391176687
43.62613531177414,3.8397216796875,0.13040942911736997
43.62613531177414,3.84246826171875,0.1578497700406453
43.62613531177414,3.84521484375,0.17680840619641774
43.62613531177414,3.84796142578125,0.18438867323526464
43.62613531177414,3.8507080078125,0.1810778802977563
43.62613531177414,3.85345458984375,0.16997654770755694
43.62613531177414,3.856201171875,0.1548263727034734
43.62613531177414,3.85894775390625,0.138235225602671
43.62613531177414,3.8616943359375,0.1213622451792313
43.62613531177414,3.86444091796875,0.10490722923324237
43.62613531177414,3.878173828125,0.12056514118399257
43.62613531177414,3.88092041015625,0.17514869320421939
43.62613531177414,3.8836669921875,0.2542656917748518
43.62613531177414,3.88641357421875,0.35238033894154275
43.62613531177414,3.88916015625,0.45749741048792836
43.62613531177414,3.89190673828125,0.553480610636482
43.62613531177414,3.8946533203125,0.6234736701789868
43.62613531177414,3.89739990234375,0.6533872721897298
43.62613531177414,3.900146484375,0.6357133901769207
43.62613531177414,3.90289306640625,0.5728130280718221
43.62613531177414,3.9056396484375,0.47704973652620514
43.62613531177414,3.90838623046875,0.3669827729701412
43.62613531177414,3.9111328125,0.26197497918450763
43.62613531177414,3.91387939453125,0.17721918788521132
43.62613531177414,3.9166259765625,0.11989289086032294
43.62414714566806,3.61175537109375,0.1335731672572195
43.62414714566806,3.614501953125,0.16953126019208734
43.62414714566806,3.61724853515625,0.19796478596844505
43.62414714566806,3.6199951171875,0.21168780230879186
43.62414714566806,3.62274169921875,0.2084062342715931
43.62414714566806,3.62548828125,0.19156932413974156
43.62414714566806,3.62823486328125,0.1686124131667347
43.62414714566806,3.6309814453125,0.14726375734914604
43.62414714566806,3.63372802734375,0.1320224815607813
43.62414714566806,3.636474609375,0.12319270937217185
43.62414714566806,3.63922119140625,0.11861140148919866
43.62414714566806,3.6419677734375,0.11598056950877955
43.62414714566806,3.64471435546875,0.11401873502422422
43.62414714566806,3.6474609375,0.11235396319862948
43.62414714566806,3.65020751953125,0.11098740943781046
43.62414714566806,3.6529541015625,0.10993467697221224
43.62414714566806,3.65570068359375,0.10913376006076654
43.62414714566806,3.658447265625,0.10850283374678575
43.62414714566806,3.66119384765625,0.1080377808471088
43.62414714566806,3.6639404296875,0.10784118665054651
43.62414714566806,3.66668701171875,0.10799559132693612
43.62414714566806,3.66943359375,0.10836851880451912
43.62414714566806,3.67218017578125,0.108571699628803
43.62414714566806,3.6749267578125,0.10818435221306134
43.62414714566806,3.67767333984375,0.1071322508702386
43.62414714566806,3.680419921875,0.10599490944118065
43.62414714566806,3.68316650390625,0.10600731487701893
43.62414714566806,3.6859130859375,0.1086204237772183
43.62414714566806,3.68865966796875,0.11478425230032906
43.62414714566806,3.69140625,0.12436439151732757
43.62414714566806,3.69415283203125,0.13594066003535138
43.62414714566806,3.6968994140625,0.146931437533021
43.62414714566806,3.69964599609375,0.15406776609632244
43.62414714566806,3.702392578125,0.15434940241453682
43.62414714566806,3.70513916015625,0.146198808202572
43.62414714566806,3.7078857421875,0.13013131986005863
43.62414714566806,3.71063232421875,0.10859085798910076
43.62414714566806,3.76556396484375,0.10643236288171258
43.62414714566806,3.768310546875,0.12626577198705752
43.62414714566806,3.77105712890625,0.1506385008007019
43.62414714566806,3.7738037109375,0.18302369384532832
43.62414714566806,3.77655029296875,0.22391537045705318
43.62414714566806,3.779296875,0.26805719561590186
43.62414714566806,3.78204345703125,0.305453321683483
43.62414714566806,3.7847900390625,0.32565159848365316
43.62414714566806,3.78753662109375,0.3220810233405683
43.62414714566806,3.790283203125,0.2946219202098443
43.62414714566806,3.79302978515625,0.24995837636003518
43.62414714566806,3.7957763671875,0.19887203239476442
43.62414714566806,3.79852294921875,0.15141763554909174
43.62414714566806,3.80126953125,0.1136020494542354
43.62414714566806,3.834228515625,0.11416925604929339
43.62414714566806,3.83697509765625,0.1434691053152477
43.62414714566806,3.8397216796875,0.1775986650997527
43.62414714566806,3.84246826171875,0.21007593080749343
43.62414714566806,3.84521484375,0.23470880090440974
43.62414714566806,3.84796142578125,0.24776578248386294
43.62414714566806,3.8507080078125,0.24897900389422553
43.62414714566806,3.85345458984375,0.2409322378120461
43.62414714566806,3.856201171875,0.227141937853922
43.62414714566806,3.85894775390625,0.2102474093143649
43.62414714566806,3.8616943359375,0.1916649858267985
43.62414714566806,3.86444091796875,0.1726704376782926
43.62414714566806,3.8671875,0.15575558381446655
43.62414714566806,3.86993408203125,0.1452578718595328
43.62414714566806,3.8726806640625,0.14708468552731782
43.62414714566806,3.87542724609375,0.1677552127904044
43.62414714566806,3.878173828125,0.2127209448622957
43.62414714566806,3.88092041015625,0.28391301074525954
43.62414714566806,3.8836669921875,0.37734645335555994
43.62414714566806,3.88641357421875,0.48250362672215297
43.62414714566806,3.88916015625,0.5845597853187807
43.62414714566806,3.89190673828125,0.6681792861063932
43.62414714566806,3.8946533203125,0.7203994978704962
43.62414714566806,3.89739990234375,0.7320512515155437
43.62414714566806,3.900146484375,0.6993745328094589
43.62414714566806,3.90289306640625,0.6260138819233991
43.62414714566806,3.9056396484375,0.5232071416636725
43.62414714566806,3.90838623046875,0.4073105952380926
43.62414714566806,3.9111328125,0.29606220017946644
43.62414714566806,3.91387939453125,0.20428582202189802
43.62414714566806,3.9166259765625,0.13955144570113515
43.62414714566806,3.91937255859375,0.10045167120455542
43.62215891380659,3.6090087890625,0.1347467759712499
43.62215891380659,3.61175537109375,0.1920285308314118
43.62215891380659,3.614501953125,0.2496472808986894
43.62215891380659,3.61724853515625,0.29283693023776164
43.62215891380659,3.6199951171875,0.3099403331677298
43.62215891380659,3.62274169921875,0.2976462975752017
43.62215891380659,3.62548828125,0.2622674157949233
43.62215891380659,3.62823486328125,0.2166723520918781
43.62215891380659,3.6309814453125,0.17415553207321033
43.62215891380659,3.63372802734375,0.1426722141682352
43.62215891380659,3.636474609375,0.12315373275665167
43.62215891380659,3.63922119140625,0.11215704399336907
43.62215891380659,3.6419677734375,0.105643897260997
43.62215891380659,3.64471435546875,0.10103579817159881
43.62215891380659,3.69964599609375,0.10273018588845871
43.62215891380659,3.702392578125,0.10591691207760595
43.62215891380659,3.70513916015625,0.10352005946326537
43.62215891380659,3.7738037109375,0.12984842521436082
43.62215891380659,3.77655029296875,0.17206794755144572
43.62215891380659,3.779296875,0.2228483295575128
43.62215891380659,3.78204345703125,0.2733798858254821
43.62215891380659,3.7847900390625,0.31278098290529627
43.62215891380659,3.78753662109375,0.33205921432364444
43.62215891380659,3.790283203125,0.3271994328591973
43.62215891380659,3.79302978515625,0.30080415403386757
43.62215891380659,3.7957763671875,0.2610423570306621
43.62215891380659,3.79852294921875,0.2179116261586052
43.62215891380659,3.80126953125,0.1796400056517567
43.62215891380659,3.80401611328125,0.1514540225184143
43.62215891380659,3.8067626953125,0.13573058014200376
43.62215891380659,3.80950927734375,0.13191423125724186
43.62215891380659,3.812255859375,0.13659388625715269
43.62215891380659,3.81500244140625,0.1447458089658178
43.62215891380659,3.8177490234375,0.15179277234811167
43.62215891380659,3.82049560546875,0.1551879469477985
43.62215891380659,3.8232421875,0.1548963751814987
43.62215891380659,3.82598876953125,0.1531083947832427
43.62215891380659,3.8287353515625,0.1536054414385166
43.62215891380659,3.83148193359375,0.16062030406844538
43.62215891380659,3.834228515625,0.17705809163632344
43.62215891380659,3.83697509765625,0.20277441710493477
43.62215891380659,3.8397216796875,0.23413222974479925
43.62215891380659,3.84246826171875,0.2652930623366805
43.62215891380659,3.84521484375,0.29044325128123305
43.62215891380659,3.84796142578125,0.30580833772356103
43.62215891380659,3.8507080078125,0.310662667813603
43.62215891380659,3.85345458984375,0.3068667369517792
43.62215891380659,3.856201171875,0.29720292292409034
43.62215891380659,3.85894775390625,0.28381364648158064
43.62215891380659,3.8616943359375,0.2680153093563912
43.62215891380659,3.86444091796875,0.25153634954772613
43.62215891380659,3.8671875,0.23806881233829422
43.62215891380659,3.86993408203125,0.2338294964104826
43.62215891380659,3.8726806640625,0.24649150377208304
43.62215891380659,3.87542724609375,0.28278724700264307
43.62215891380659,3.878173828125,0.34562816580431294
43.62215891380659,3.88092041015625,0.43171547283670453
43.62215891380659,3.8836669921875,0.5308286846807198
43.62215891380659,3.88641357421875,0.6279651072458797
43.62215891380659,3.88916015625,0.7080286148630479
43.62215891380659,3.89190673828125,0.7602119421124688
43.62215891380659,3.8946533203125,0.7790647405125378
43.62215891380659,3.89739990234375,0.7628191856812963
43.62215891380659,3.900146484375,0.7123157567911627
43.62215891380659,3.90289306640625,0.6317620182751456
43.62215891380659,3.9056396484375,0.5294634565137548
43.62215891380659,3.90838623046875,0.4173069744648747
43.62215891380659,3.9111328125,0.3091797186329445
43.62215891380659,3.91387939453125,0.21779817853938335
43.62215891380659,3.9166259765625,0.15035311911235666
43.62215891380659,3.91937255859375,0.10627713960865452
43.6201706161899,3.60626220703125,0.11287545423279896
43.6201706161899,3.6090087890625,0.18087978183341727
43.6201706161899,3.61175537109375,0.26379462020295563
43.6201706161899,3.614501953125,0.3448935761573268
43.6201706161899,3.61724853515625,0.40297872359412173
43.6201706161899,3.6199951171875,0.4216871992540787
43.6201706161899,3.62274169921875,0.39687173905812323
43.6201706161899,3.62548828125,0.33826428238395917
43.6201706161899,3.62823486328125,0.26489964467882693
43.6201706161899,3.6309814453125,0.19639911277818825
43.6201706161899,3.63372802734375,0.1448648864560094
43.6201706161899,3.636474609375,0.11229212896697305
43.6201706161899,3.77655029296875,0.13022001870357347
43.6201706161899,3.779296875,0.17945965688574805
43.6201706161899,3.78204345703125,0.23403539359584938
43.6201706161899,3.7847900390625,0.2846175476062499
43.6201706161899,3.78753662109375,0.32184750190047146
43.6201706161899,3.790283203125,0.339165107037275
43.6201706161899,3.79302978515625,0.335145285670021
43.6201706161899,3.7957763671875,0.3140739241746846
43.6201706161899,3.79852294921875,0.2839283247977107
43.6201706161899,3.80126953125,0.2533348693485596
43.6201706161899,3.80401611328125,0.22949071471923396
43.6201706161899,3.8067626953125,0.21695455265160257
43.6201706161899,3.80950927734375,0.2165622197437161
43.6201706161899,3.812255859375,0.22517909355066493
43.6201706161899,3.81500244140625,0.23724154614781945
43.6201706161899,3.8177490234375,0.24740987661170186
43.6201706161899,3.82049560546875,0.25261340956442435
43.6201706161899,3.8232421875,0.25264201048385043
43.6201706161899,3.82598876953125,0.24969237367303376
43.6201706161899,3.8287353515625,0.24748496876975606
43.6201706161899,3.83148193359375,0.250026297170997
43.6201706161899,3.834228515625,0.26006440592907953
43.6201706161899,3.83697509765625,0.2777963835167734
43.6201706161899,3.8397216796875,0.30060879009749875
43.6201706161899,3.84246826171875,0.32408615251486605
43.6201706161899,3.84521484375,0.3437405490865604
43.6201706161899,3.84796142578125,0.3566273969861701
43.6201706161899,3.8507080078125,0.36215107593577645
43.6201706161899,3.85345458984375,0.36164485491355286
43.6201706161899,3.856201171875,0.35700985393636037
43.6201706161899,3.85894775390625,0.34957303066166845
43.6201706161899,3.8616943359375,0.3402615231410822
43.6201706161899,3.86444091796875,0.3311450731419356
43.6201706161899,3.8671875,0.3271895063423369
43.6201706161899,3.86993408203125,0.33645943485520924
43.6201706161899,3.8726806640625,0.36763038061416115
43.6201706161899,3.87542724609375,0.4256624691115037
43.6201706161899,3.878173828125,0.5081215127993951
43.6201706161899,3.88092041015625,0.604230433791055
43.6201706161899,3.8836669921875,0.6972741446703004
43.6201706161899,3.88641357421875,0.7699526938920226
43.6201706161899,3.88916015625,0.8107107048862591
43.6201706161899,3.89190673828125,0.8170907690619658
43.6201706161899,3.8946533203125,0.7935309563909815
43.6201706161899,3.89739990234375,0.7460964681517033
43.6201706161899,3.900146484375,0.6792110697327309
43.6201706161899,3.90289306640625,0.5960991467024541
43.6201706161899,3.9056396484375,0.5007646637800179
43.6201706161899,3.90838623046875,0.39957884049584963
43.6201706161899,3.9111328125,0.30162241384967003
43.6201706161899,3.91387939453125,0.2166016718041802
43.6201706161899,3.9166259765625,0.15083021873701258
43.6201706161899,3.91937255859375,0.10475379710200187
43.61818225281826,3.60626220703125,0.14517974969038705
43.61818225281826,3.6090087890625,0.23528927152483226
43.61818225281826,3.61175537109375,0.3418183570739257
43.61818225281826,3.614501953125,0.4432240858446142
43.61818225281826,3.61724853515625,0.5130950121871459
43.61818225281826,3.6199951171875,0.5313752914570485
43.61818225281826,3.62274169921875,0.4934072854922541
43.61818225281826,3.62548828125,0.41189757211589906
43.61818225281826,3.62823486328125,0.31113935946371507
43.61818225281826,3.6309814453125,0.21637517389622765
43.61818225281826,3.63372802734375,0.14389530841284312
43.61818225281826,3.77655029296875,0.10318628127221519
43.61818225281826,3.779296875,0.1445948816283467
43.61818225281826,3.78204345703125,0.1945474711302763
43.61818225281826,3.7847900390625,0.24661214129730716
43.61818225281826,3.78753662109375,0.2930773404050087
43.61818225281826,3.790283203125,0.3268994257636454
43.61818225281826,3.79302978515625,0.3439421493033807
43.61818225281826,3.7957763671875,0.34459188389614503
43.61818225281826,3.79852294921875,0.33347504373231374
43.61818225281826,3.80126953125,0.3175853459323161
43.61818225281826,3.80401611328125,0.30414318813849534
43.61818225281826,3.8067626953125,0.29861681631111214
43.61818225281826,3.80950927734375,0.3029284907805983
43.61818225281826,3.812255859375,0.31483577435200016
43.61818225281826,3.81500244140625,0.32938234841643815
43.61818225281826,3.8177490234375,0.3415886796573079
43.61818225281826,3.82049560546875,0.3485319971294561
43.61818225281826,3.8232421875,0.3499146053986083
43.61818225281826,3.82598876953125,0.3475486890739566
43.61818225281826,3.8287353515625,0.34445430807561167
43.61818225281826,3.83148193359375,0.3437988645810338
43.61818225281826,3.834228515625,0.3477967800228414
43.61818225281826,3.83697509765625,0.3568876679249281
43.61818225281826,3.8397216796875,0.36957169353640135
43.61818225281826,3.84246826171875,0.38305430111796346
43.61818225281826,3.84521484375,0.3944630094104758
43.61818225281826,3.84796142578125,0.40205916333140335
43.61818225281826,3.8507080078125,0.4057923051366462
43.61818225281826,3.85345458984375,0.40683956444770997
43.61818225281826,3.856201171875,0.40646439815039037
43.61818225281826,3.85894775390625,0.40527171499930775
43.61818225281826,3.8616943359375,0.40382027345910215
43.61818225281826,3.86444091796875,0.40458421837119246
43.61818225281826,3.8671875,0.41386884978540067
43.61818225281826,3.86993408203125,0.44129050225496896
43.61818225281826,3.8726806640625,0.4953310797307061
43.61818225281826,3.87542724609375,0.5769979491132574
43.61818225281826,3.878173828125,0.6762478162904352
43.61818225281826,3.88092041015625,0.7739634200814783
43.61818225281826,3.8836669921875,0.8484016462243614
43.61818225281826,3.88641357421875,0.8833754394258261
43.61818225281826,3.88916015625,0.8747065211137883
43.61818225281826,3.89190673828125,0.8307407379616155
43.61818225281826,3.8946533203125,0.7658424866070997
43.61818225281826,3.89739990234375,0.6919163724260409
43.61818225281826,3.900146484375,0.6143740310952289
43.61818225281826,3.90289306640625,0.5336875488007299
43.61818225281826,3.9056396484375,0.4491762395809055
43.61818225281826,3.90838623046875,0.36223465720905806
43.61818225281826,3.9111328125,0.2777110286949991
43.61818225281826,3.91387939453125,0.20243298913440105
43.61818225281826,3.9166259765625,0.1416712048542705
43.616193823691866,3.603515625,0.10360027021775389
43.616193823691866,3.60626220703125,0.1832504173174397
43.616193823691866,3.6090087890625,0.29062453157511187
43.616193823691866,3.61175537109375,0.41306565093509023
43.616193823691866,3.614501953125,0.5264424567407908
43.616193823691866,3.61724853515625,0.6021297221321468
43.616193823691866,3.6199951171875,0.6185542177911828
43.616193823691866,3.62274169921875,0.5708285309058856
43.616193823691866,3.62548828125,0.47297103606529456
43.616193823691866,3.62823486328125,0.3518373055032547
43.616193823691866,3.6309814453125,0.23602714318546653
43.616193823691866,3.63372802734375,0.14530154571606355
43.616193823691866,3.779296875,0.1190349948461228
43.616193823691866,3.78204345703125,0.15873802650687205
43.616193823691866,3.7847900390625,0.2042531965473543
43.616193823691866,3.78753662109375,0.2506781243756766
43.616193823691866,3.790283203125,0.2923220482856306
43.616193823691866,3.79302978515625,0.32421250886720415
43.616193823691866,3.7957763671875,0.34392034506766334
43.616193823691866,3.79852294921875,0.3524927361290902
43.616193823691866,3.80126953125,0.3539155076479515
43.616193823691866,3.80401611328125,0.3536094939905304
43.616193823691866,3.8067626953125,0.35647175556656696
43.616193823691866,3.80950927734375,0.3649185183598564
43.616193823691866,3.812255859375,0.37801189223125387
43.616193823691866,3.81500244140625,0.39246473777464075
43.616193823691866,3.8177490234375,0.4047621024866233
43.616193823691866,3.82049560546875,0.41279621250683945
43.616193823691866,3.8232421875,0.41627653294324213
43.616193823691866,3.82598876953125,0.4163091300062018
43.616193823691866,3.8287353515625,0.414769089535182
43.616193823691866,3.83148193359375,0.4136961510986658
43.616193823691866,3.834228515625,0.4147255403435387
43.616193823691866,3.83697509765625,0.4185641779244459
43.616193823691866,3.8397216796875,0.42467420875751655
43.616193823691866,3.84246826171875,0.43148410182069347
43.616193823691866,3.84521484375,0.4372356473053229
43.616193823691866,3.84796142578125,0.44101347651216455
43.616193823691866,3.8507080078125,0.4432262852013851
43.616193823691866,3.85345458984375,0.44516075294001806
43.616193823691866,3.856201171875,0.44795451387049523
43.616193823691866,3.85894775390625,0.4520514528612164
43.616193823691866,3.8616943359375,0.4580897844011775
43.616193823691866,3.86444091796875,0.4691699046400359
43.616193823691866,3.8671875,0.49274182919709736
43.616193823691866,3.86993408203125,0.5390831529220895
43.616193823691866,3.8726806640625,0.6148676716253414
43.616193823691866,3.87542724609375,0.7154625950433444
43.616193823691866,3.878173828125,0.8226484552171964
43.616193823691866,3.88092041015625,0.9104090624137191
43.616193823691866,3.8836669921875,0.9552079828327829
43.616193823691866,3.88641357421875,0.9456684839614744
43.616193823691866,3.88916015625,0.8873969478721664
43.616193823691866,3.89190673828125,0.7994304885128276
43.616193823691866,3.8946533203125,0.7034800147978397
43.616193823691866,3.89739990234375,0.6136080350140247
43.616193823691866,3.900146484375,0.5332505552252197
43.616193823691866,3.90289306640625,0.4590561819308811
43.616193823691866,3.9056396484375,0.38646853737088904
43.616193823691866,3.90838623046875,0.3136429217690375
43.616193823691866,3.9111328125,0.24273985242075147
43.616193823691866,3.91387939453125,0.17846804743188757
43.616193823691866,3.9166259765625,0.12505131936216157
43.61420532881094,3.603515625,0.12869035798650946
43.61420532881094,3.60626220703125,0.2192239393130091
43.61420532881094,3.6090087890625,0.334805457783263
43.61420532881094,3.61175537109375,0.461277779290542
43.61420532881094,3.614501953125,0.5751810077743957
43.61420532881094,3.61724853515625,0.6496153447599518
43.61420532881094,3.6199951171875,0.6641356229661871
43.61420532881094,3.62274169921875,0.613643259198336
43.61420532881094,3.62548828125,0.5109226086317094
43.61420532881094,3.62823486328125,0.3815916110253278
43.61420532881094,3.6309814453125,0.2543896231647874
43.61420532881094,3.63372802734375,0.1512427321244912
43.61420532881094,3.779296875,0.10026526022292918
43.61420532881094,3.78204345703125,0.12800631839805346
43.61420532881094,3.7847900390625,0.16260596079166098
43.61420532881094,3.78753662109375,0.20198858719715818
43.61420532881094,3.790283203125,0.24273799919318123
43.61420532881094,3.79302978515625,0.2806403967660823
43.61420532881094,3.7957763671875,0.31204055950876264
43.61420532881094,3.79852294921875,0.33523748342161747
43.61420532881094,3.80126953125,0.3509949938887055
43.61420532881094,3.80401611328125,0.36199482570061425
43.61420532881094,3.8067626953125,0.37151516800160733
43.61420532881094,3.80950927734375,0.3818520267081708
43.61420532881094,3.812255859375,0.393412960151997
43.61420532881094,3.81500244140625,0.4051025439322183
43.61420532881094,3.8177490234375,0.4154738732905516
43.61420532881094,3.82049560546875,0.42359338980489425
43.61420532881094,3.8232421875,0.42921881794906686
43.61420532881094,3.82598876953125,0.4326119071801515
43.61420532881094,3.8287353515625,0.43440730449798154
43.61420532881094,3.83148193359375,0.43562472591678697
43.61420532881094,3.834228515625,0.43758267729909356
43.61420532881094,3.83697509765625,0.44140729444037496
43.61420532881094,3.8397216796875,0.4472934397024889
43.61420532881094,3.84246826171875,0.45422817755516215
43.61420532881094,3.84521484375,0.4606436426952921
43.61420532881094,3.84796142578125,0.465557906539485
43.61420532881094,3.8507080078125,0.4692926918690434
43.61420532881094,3.85345458984375,0.4732540829133821
43.61420532881094,3.856201171875,0.4790167194710611
43.61420532881094,3.85894775390625,0.4877316063689136
43.61420532881094,3.8616943359375,0.5008839239609736
43.61420532881094,3.86444091796875,0.5224056063939202
43.61420532881094,3.8671875,0.5601332732923817
43.61420532881094,3.86993408203125,0.6232587430980395
43.61420532881094,3.8726806640625,0.7146945510217665
43.61420532881094,3.87542724609375,0.8234714285198463
43.61420532881094,3.878173828125,0.9248794754866007
43.61420532881094,3.88092041015625,0.9898406820864828
43.61420532881094,3.8836669921875,0.99744095358357
43.61420532881094,3.88641357421875,0.9440784684341215
43.61420532881094,3.88916015625,0.8452135359172089
43.61420532881094,3.89190673828125,0.7276745802228222
43.61420532881094,3.8946533203125,0.6160575159963463
43.61420532881094,3.89739990234375,0.5226059787677484
43.61420532881094,3.900146484375,0.4467596245807989
43.61420532881094,3.90289306640625,0.381544010620786
43.61420532881094,3.9056396484375,0.32021911952695725
43.61420532881094,3.90838623046875,0.25979309606278456
43.61420532881094,3.9111328125,0.20137269871381144
43.61420532881094,3.91387939453125,0.14835283993169845
43.61420532881094,3.9166259765625,0.10389707179097031
43.61221676817572,3.603515625,0.14891107253213154
43.61221676817572,3.60626220703125,0.2423735560691278
43.61221676817572,3.6090087890625,0.3548519323213442
43.61221676817572,3.61175537109375,0.4725054557454967
43.61221676817572,3.614501953125,0.5758100275673567
43.61221676817572,3.61724853515625,0.6431341115410442
43.61221676817572,3.6199951171875,0.6573250811747706
43.61221676817572,3.62274169921875,0.6127444338054012
43.61221676817572,3.62548828125,0.5183002543587083
43.61221676817572,3.62823486328125,0.39468484578712637
43.61221676817572,3.6309814453125,0.2676081819310873
43.61221676817572,3.63372802734375,0.15961318511508002
43.61221676817572,3.78204345703125,0.10225074716737843
43.61221676817572,3.7847900390625,0.12551636425878746
43.61221676817572,3.78753662109375,0.15461649606616348
43.61221676817572,3.790283203125,0.18825007044040024
43.61221676817572,3.79302978515625,0.22371979626825086
43.61221676817572,3.7957763671875,0.25755081423825305
43.61221676817572,3.79852294921875,0.2867150492176286
43.61221676817572,3.80126953125,0.30964347232457695
43.61221676817572,3.80401611328125,0.32649861973045347
43.61221676817572,3.8067626953125,0.3386951226950693
43.61221676817572,3.80950927734375,0.3480066402956796
43.61221676817572,3.812255859375,0.3558511068688606
43.61221676817572,3.81500244140625,0.3631210940752826
43.61221676817572,3.8177490234375,0.37031654127030267
43.61221676817572,3.82049560546875,0.3775887974867945
43.61221676817572,3.8232421875,0.38470021832239465
43.61221676817572,3.82598876953125,0.3911347028511219
43.61221676817572,3.8287353515625,0.39651951662833346
43.61221676817572,3.83148193359375,0.40123082802337073
43.61221676817572,3.834228515625,0.4066479486036428
43.61221676817572,3.83697509765625,0.4144910307632903
43.61221676817572,3.8397216796875,0.42552093154636167
43.61221676817572,3.84246826171875,0.4387672999516307
43.61221676817572,3.84521484375,0.4520845297129786
43.61221676817572,3.84796142578125,0.4635844874067528
43.61221676817572,3.8507080078125,0.472850437001914
43.61221676817572,3.85345458984375,0.48121041187334196
43.61221676817572,3.856201171875,0.4910568540811513
43.61221676817572,3.85894775390625,0.5050373434057366
43.61221676817572,3.8616943359375,0.5261796777618396
43.61221676817572,3.86444091796875,0.5591550401345599
43.61221676817572,3.8671875,0.610811372268988
43.61221676817572,3.86993408203125,0.6869238186080187
43.61221676817572,3.8726806640625,0.7848565629949449
43.61221676817572,3.87542724609375,0.8879335211727867
43.61221676817572,3.878173828125,0.9686067243300667
43.61221676817572,3.88092041015625,1.0
43.61221676817572,3.8836669921875,0.968197111495986
43.61221676817572,3.88641357421875,0.8787458749169018
43.61221676817572,3.88916015625,0.7546433148786609
43.61221676817572,3.89190673828125,0.6256589377031723
43.61221676817572,3.8946533203125,0.5143058287563091
43.61221676817572,3.89739990234375,0.4280237612200677
43.61221676817572,3.900146484375,0.36183751717399765
43.61221676817572,3.90289306640625,0.30651857321799797
43.61221676817572,3.9056396484375,0.2551122812119283
43.61221676817572,3.90838623046875,0.20519690969923157
43.61221676817572,3.9111328125,0.15795947710596675
43.61221676817572,3.91387939453125,0.11600124717874549
43.6102281417864,3.603515625,0.15682513798955836
43.6102281417864,3.60626220703125,0.2440790715937401
43.6102281417864,3.6090087890625,0.3428948898250011
43.6102281417864,3.61175537109375,0.44161213344107497
43.6102281417864,3.614501953125,0.5268581642550402
43.6102281417864,3.61724853515625,0.5842465546847652
43.6102281417864,3.6199951171875,0.6008930392467133
43.6102281417864,3.62274169921875,0.5700709820678906
43.6102281417864,3.62548828125,0.4949462480069849
43.6102281417864,3.62823486328125,0.38886359374512475
43.6102281417864,3.6309814453125,0.2722938615311219
43.6102281417864,3.63372802734375,0.16696130137460996
43.6102281417864,3.78753662109375,0.11374068546186288
43.6102281417864,3.790283203125,0.1377335432697776
43.6102281417864,3.79302978515625,0.16523887796709327
43.6102281417864,3.7957763671875,0.1937241172515271
43.6102281417864,3.79852294921875,0.22019300174576498
43.6102281417864,3.80126953125,0.2421768587912454
43.6102281417864,3.80401611328125,0.2584028162059666
43.6102281417864,3.8067626953125,0.26895042694890436
43.6102281417864,3.80950927734375,0.27501152753167124
43.6102281417864,3.812255859375,0.2784738827591397
43.6102281417864,3.81500244140625,0.28142561358970697
43.6102281417864,3.8177490234375,0.28555393342290936
43.6102281417864,3.82049560546875,0.2915980156064123
43.6102281417864,3.8232421875,0.2991931253409667
43.6102281417864,3.82598876953125,0.30725818697597196
43.6102281417864,3.8287353515625,0.31484703282323295
43.6102281417864,3.83148193359375,0.32214502011305746
43.6102281417864,3.834228515625,0.330875745648219
43.6102281417864,3.83697509765625,0.3434155843762855
43.6102281417864,3.8397216796875,0.36101667651115094
43.6102281417864,3.84246826171875,0.38262400218713255
43.6102281417864,3.84521484375,0.4053297063597345
43.6102281417864,3.84796142578125,0.4260685538514155
43.6102281417864,3.8507080078125,0.44338245059833914
43.6102281417864,3.85345458984375,0.4583356723138874
43.6102281417864,3.856201171875,0.4742117833322982
43.6102281417864,3.85894775390625,0.4954343333930631
43.6102281417864,3.8616943359375,0.5266821298327168
43.6102281417864,3.86444091796875,0.5727187945749432
43.6102281417864,3.8671875,0.6377055582281463
43.6102281417864,3.86993408203125,0.7219112777954395
43.6102281417864,3.8726806640625,0.8163654985989109
43.6102281417864,3.87542724609375,0.9007171667818444
43.6102281417864,3.878173828125,0.949161183379901
43.6102281417864,3.88092041015625,0.9419996296109631
43.6102281417864,3.8836669921875,0.8751677312715881
43.6102281417864,3.88641357421875,0.7626643238514724
43.6102281417864,3.88916015625,0.6310635457951107
43.6102281417864,3.89190673828125,0.5078319423770571
43.6102281417864,3.8946533203125,0.4094565695396069
43.6102281417864,3.89739990234375,0.3373664284743284
43.6102281417864,3.900146484375,0.2832509578609848
43.6102281417864,3.90289306640625,0.23755523849293958
43.6102281417864,3.9056396484375,0.1947302147418677
43.6102281417864,3.90838623046875,0.15386961662910248
43.6102281417864,3.9111328125,0.11669170322822908
43.608239449643236,3.603515625,0.14894056458012125
43.608239449643236,3.60626220703125,0.22219639618414164
43.608239449643236,3.6090087890625,0.30039552148096843
43.608239449643236,3.61175537109375,0.37539944207740666
43.608239449643236,3.614501953125,0.440552401980211
43.608239449643236,3.61724853515625,0.4886744898104203
43.608239449643236,3.6199951171875,0.5108279192508232
43.608239449643236,3.62274169921875,0.4987371855293965
43.608239449643236,3.62548828125,0.4492992561101002
43.608239449643236,3.62823486328125,0.3679099552790965
43.608239449643236,3.6309814453125,0.2689426239530135
43.608239449643236,3.63372802734375,0.17217388840474854
43.608239449643236,3.79302978515625,0.11392295453190622
43.608239449643236,3.7957763671875,0.13322122630973135
43.608239449643236,3.79852294921875,0.1516960029625623
43.608239449643236,3.80126953125,0.16721490683363482
43.608239449643236,3.80401611328125,0.17832379015187236
43.608239449643236,3.8067626953125,0.1846476889804428
43.608239449643236,3.80950927734375,0.18702287761692218
43.608239449643236,3.812255859375,0.18731977510030948
43.608239449643236,3.81500244140625,0.18785930025861683
43.608239449643236,3.8177490234375,0.190507318104732
43.608239449643236,3.82049560546875,0.1959125065725255
43.608239449643236,3.8232421875,0.20338780570508527
43.608239449643236,3.82598876953125,0.21150446640066906
43.608239449643236,3.8287353515625,0.21914817157035368
43.608239449643236,3.83148193359375,0.22662163016699133
43.608239449643236,3.834228515625,0.23603506003044777
43.608239449643236,3.83697509765625,0.2502943987228325
43.608239449643236,3.8397216796875,0.27112130027110587
43.608239449643236,3.84246826171875,0.29764269755422107
43.608239449643236,3.84521484375,0.3266866882472609
43.608239449643236,3.84796142578125,0.354527030150326
43.608239449643236,3.8507080078125,0.3789941636142458
43.608239449643236,3.85345458984375,0.40093567224730564
43.608239449643236,3.856201171875,0.4243052143345618
43.608239449643236,3.85894775390625,0.4548432051254214
43.608239449643236,3.8616943359375,0.49811868382666236
43.608239449643236,3.86444091796875,0.5578122360004383
43.608239449643236,3.8671875,0.633971150111362
43.608239449643236,3.86993408203125,0.7204748820012881
43.608239449643236,3.8726806640625,0.8028552441580947
43.608239449643236,3.87542724609375,0.860090521662282
43.608239449643236,3.878173828125,0.8721458659722979
43.608239449643236,3.88092041015625,0.8294364276676817
43.608239449643236,3.8836669921875,0.7380043286111525
43.608239449643236,3.88641357421875,0.6176760953207556
43.608239449643236,3.88916015625,0.49428903628460336
43.608239449643236,3.89190673828125,0.3890817813240754
43.608239449643236,3.8946533203125,0.31077638203943936
43.608239449643236,3.89739990234375,0.25549880565643174
43.608239449643236,3.900146484375,0.21353168424825586
43.608239449643236,3.90289306640625,0.17668895425308986
43.608239449643236,3.9056396484375,0.1416209192345534
43.608239449643236,3.90838623046875,0.10900314670816326
43.60625069174642,3.603515625,0.12706278343516167
43.60625069174642,3.60626220703125,0.18190836996115214
43.60625069174642,3.6090087890625,0.23749275396752942
43.60625069174642,3.61175537109375,0.2896453487198719
43.60625069174642,3.614501953125,0.33743367812335967
43.60625069174642,3.61724853515625,0.3792630395691076
43.60625069174642,3.6199951171875,0.40903351834382073
43.60625069174642,3.62274169921875,0.4169046931201313
43.60625069174642,3.62548828125,0.3943698333195265
43.60625069174642,3.62823486328125,0.3398701217624071
43.60625069174642,3.6309814453125,0.2619179212276541
43.60625069174642,3.63372802734375,0.17746517739670575
43.60625069174642,3.636474609375,0.10453559221340017
43.60625069174642,3.80126953125,0.10207066812381817
43.60625069174642,3.80401611328125,0.1072676476530199
43.60625069174642,3.8067626953125,0.10957413134072114
43.60625069174642,3.80950927734375,0.10977749097950638
43.60625069174642,3.812255859375,0.1094899238098186
43.60625069174642,3.81500244140625,0.11059386208878656
43.60625069174642,3.8177490234375,0.11436112211315078
43.60625069174642,3.82049560546875,0.12079417666513617
43.60625069174642,3.8232421875,0.12867785612688534
43.60625069174642,3.82598876953125,0.13630930121385665
43.60625069174642,3.8287353515625,0.1425562569466506
43.60625069174642,3.83148193359375,0.1478418788829542
43.60625069174642,3.834228515625,0.15443997832935052
43.60625069174642,3.83697509765625,0.1655114872758514
43.60625069174642,3.8397216796875,0.18324536891825977
43.60625069174642,3.84246826171875,0.20744167168416375
43.60625069174642,3.84521484375,0.2355991052175486
43.60625069174642,3.84796142578125,0.2644124017411271
43.60625069174642,3.8507080078125,0.2918335146557014
43.60625069174642,3.85345458984375,0.3187396392461559
43.60625069174642,3.856201171875,0.3492610148685702
43.60625069174642,3.85894775390625,0.3893191706373854
43.60625069174642,3.8616943359375,0.4439315908236673
43.60625069174642,3.86444091796875,0.5144523681329366
43.60625069174642,3.8671875,0.5963889052143014
43.60625069174642,3.86993408203125,0.6782118410276242
43.60625069174642,3.8726806640625,0.7424520701812377
43.60625069174642,3.87542724609375,0.7705636004913203
43.60625069174642,3.878173828125,0.7504636344197366
43.60625069174642,3.88092041015625,0.68259334628243
43.60625069174642,3.8836669921875,0.5806400478679812
43.60625069174642,3.88641357421875,0.4665021281531927
43.60625069174642,3.88916015625,0.36190548791524035
43.60625069174642,3.89190673828125,0.28033759078355464
43.60625069174642,3.8946533203125,0.22348393796844906
43.60625069174642,3.89739990234375,0.1842111126341507
43.60625069174642,3.900146484375,0.15329164330196673
43.60625069174642,3.90289306640625,0.12476428708541078
43.604261868096174,3.60626220703125,0.13322970241435156
43.604261868096174,3.6090087890625,0.1685551897845404
43.604261868096174,3.61175537109375,0.20246480294168068
43.604261868096174,3.614501953125,0.23785155928278154
43.604261868096174,3.61724853515625,0.27648645383817644
43.604261868096174,3.6199951171875,0.31399126612793177
43.604261868096174,3.62274169921875,0.3396006064587084
43.604261868096174,3.62548828125,0.34127246414357765
43.604261868096174,3.62823486328125,0.3123691923995845
43.604261868096174,3.6309814453125,0.2562734634883396
43.604261868096174,3.63372802734375,0.1863104040995491
43.604261868096174,3.636474609375,0.119566438930939
43.604261868096174,3.82598876953125,0.10160159019304753
43.604261868096174,3.8287353515625,0.10653125070073997
43.604261868096174,3.83148193359375,0.10867994978950063
43.604261868096174,3.834228515625,0.11012497459405622
43.604261868096174,3.83697509765625,0.11397116563963432
43.604261868096174,3.8397216796875,0.12286591193146444
43.604261868096174,3.84246826171875,0.13775464784996372
43.604261868096174,3.84521484375,0.1577305402181302
43.604261868096174,3.84796142578125,0.18100152417420895
43.604261868096174,3.8507080078125,0.20645397448852812
43.604261868096174,3.85345458984375,0.2350995847171513
43.604261868096174,3.856201171875,0.2704393359568156
43.604261868096174,3.85894775390625,0.31706756695307664
43.604261868096174,3.8616943359375,0.37791158430672434
43.604261868096174,3.86444091796875,0.45136727866186416
43.604261868096174,3.8671875,0.5294573954160294
43.604261868096174,3.86993408203125,0.5980652101674203
43.604261868096174,3.8726806640625,0.6402832268325122
43.604261868096174,3.87542724609375,0.6425143215387684
43.604261868096174,3.878173828125,0.6005157642526461
43.604261868096174,3.88092041015625,0.5219353739899376
43.604261868096174,3.8836669921875,0.4238468283446791
43.604261868096174,3.88641357421875,0.32641649127079153
43.604261868096174,3.88916015625,0.24551118929985782
43.604261868096174,3.89190673828125,0.18765652298871427
43.604261868096174,3.8946533203125,0.14989500658169708
43.604261868096174,3.89739990234375,0.12420117998027257
43.604261868096174,3.900146484375,0.10303832653477119
43.602272978692746,3.6090087890625,0.10692445790376258
43.602272978692746,3.61175537109375,0.12822919476618339
43.602272978692746,3.614501953125,0.1556576239647843
43.602272978692746,3.61724853515625,0.19246051418904073
43.602272978692746,3.6199951171875,0.2354082049473901
43.602272978692746,3.62274169921875,0.2740157138696597
43.602272978692746,3.62548828125,0.29499360118230555
43.602272978692746,3.62823486328125,0.2886935821887754
43.602272978692746,3.6309814453125,0.2541546318076944
43.602272978692746,3.63372802734375,0.20029563306313616
43.602272978692746,3.636474609375,0.141586505207501
43.602272978692746,3.82598876953125,0.10917943136843404
43.602272978692746,3.8287353515625,0.11386370106785526
43.602272978692746,3.83148193359375,0.11354680888076303
43.602272978692746,3.834228515625,0.10978496212205383
43.602272978692746,3.83697509765625,0.10532244816932299
43.602272978692746,3.8397216796875,0.10316337654551615
43.602272978692746,3.84246826171875,0.1056186573696906
43.602272978692746,3.84521484375,0.11389156275350801
43.602272978692746,3.84796142578125,0.1282930541914553
43.602272978692746,3.8507080078125,0.1489456742682734
43.602272978692746,3.85345458984375,0.17668016820869817
43.602272978692746,3.856201171875,0.2133552157772371
43.602272978692746,3.85894775390625,0.26087156994136146
43.602272978692746,3.8616943359375,0.3191224872211812
43.602272978692746,3.86444091796875,0.3839552105422623
43.602272978692746,3.8671875,0.4462091131632557
43.602272978692746,3.86993408203125,0.49289696871716626
43.602272978692746,3.8726806640625,0.5111374653499837
43.602272978692746,3.87542724609375,0.49349624980003254
43.602272978692746,3.878173828125,0.4416586428751471
43.602272978692746,3.88092041015625,0.3663146372580288
43.602272978692746,3.8836669921875,0.28345062916204505
43.602272978692746,3.88641357421875,0.2086554075736491
43.602272978692746,3.88916015625,0.15177191608809057
43.602272978692746,3.89190673828125,0.11446518779719604
43.600284023536325,3.61724853515625,0.13016496536676825
43.600284023536325,3.6199951171875,0.1743915019520824
43.600284023536325,3.62274169921875,0.21991206127746457
43.600284023536325,3.62548828125,0.25435823116048684
43.600284023536325,3.62823486328125,0.2669809925356901
43.600284023536325,3.6309814453125,0.25328622180589505
43.600284023536325,3.63372802734375,0.21722328327488924
43.600284023536325,3.636474609375,0.1691140359028223
43.600284023536325,3.63922119140625,0.12023398301058698
43.600284023536325,3.82049560546875,0.11916638783066572
43.600284023536325,3.8232421875,0.1357024394344127
43.600284023536325,3.82598876953125,0.14717882969459287
43.600284023536325,3.8287353515625,0.15240164050765168
43.600284023536325,3.83148193359375,0.15113961915772314
43.600284023536325,3.834228515625,0.14421944976291912
43.600284023536325,3.83697509765625,0.13365479343366168
43.600284023536325,3.8397216796875,0.12244848355907482
43.600284023536325,3.84246826171875,0.1140443729908873
43.600284023536325,3.84521484375,0.11165376014714445
43.600284023536325,3.84796142578125,0.11761167284954131
43.600284023536325,3.8507080078125,0.13303599713907205
43.600284023536325,3.85345458984375,0.1580352868170444
43.600284023536325,3.856201171875,0.19206261576689065
43.600284023536325,3.85894775390625,0.23371602867932117
43.600284023536325,3.8616943359375,0.2799654625100213
43.600284023536325,3.86444091796875,0.3254311362796751
43.600284023536325,3.8671875,0.3623428353356413
43.600284023536325,3.86993408203125,0.3818895086782109
43.600284023536325,3.8726806640625,0.37721974603523356
43.600284023536325,3.87542724609375,0.3467068857214988
43.600284023536325,3.878173828125,0.2952299441048143
43.600284023536325,3.88092041015625,0.2327277995321309
43.600284023536325,3.8836669921875,0.1709730890210607
43.600284023536325,3.88641357421875,0.11977005552637106
43.59829500262717,3.6199951171875,0.12717229588024173
43.59829500262717,3.62274169921875,0.17342440292342487
43.59829500262717,3.62548828125,0.2153063849963135
43.59829500262717,3.62823486328125,0.24264159904839686
43.59829500262717,3.6309814453125,0.24845787633689775
43.59829500262717,3.63372802734375,0.23173423600231235
43.59829500262717,3.636474609375,0.19756178489674608
43.59829500262717,3.63922119140625,0.15433718241482222
43.59829500262717,3.6419677734375,0.11030991891776881
43.59829500262717,3.812255859375,0.10403336205238824
43.59829500262717,3.81500244140625,0.1250089966659592
43.59829500262717,3.8177490234375,0.14764643385118706
43.59829500262717,3.82049560546875,0.16879164904681362
43.59829500262717,3.8232421875,0.18578695493147754
43.59829500262717,3.82598876953125,0.19723223582854824
43.59829500262717,3.8287353515625,0.2026923582942548
43.59829500262717,3.83148193359375,0.20200028897345695
43.59829500262717,3.834228515625,0.195144274735146
43.59829500262717,3.83697509765625,0.18292281738156083
43.59829500262717,3.8397216796875,0.1676298725050974
43.59829500262717,3.84246826171875,0.1530650200277467
43.59829500262717,3.84521484375,0.14371718635044875
43.59829500262717,3.84796142578125,0.14335169065661738
43.59829500262717,3.8507080078125,0.15366327393925808
43.59829500262717,3.85345458984375,0.17380587475333673
43.59829500262717,3.856201171875,0.20087221764760096
43.59829500262717,3.85894775390625,0.2306756206132931
43.59829500262717,3.8616943359375,0.25838877699008667
43.59829500262717,3.86444091796875,0.27903958395381745
43.59829500262717,3.8671875,0.2879875035265435
43.59829500262717,3.86993408203125,0.2817430451585273
43.59829500262717,3.8726806640625,0.25928788203803366
43.59829500262717,3.87542724609375,0.22305345785519812
43.59829500262717,3.878173828125,0.17851239782969272
43.59829500262717,3.88092041015625,0.1326003154261129
43.59630591596549,3.62274169921875,0.13136284691232003
43.59630591596549,3.62548828125,0.17497562537287945
43.59630591596549,3.62823486328125,0.21212227964150943
43.59630591596549,3.6309814453125,0.2347834547699357
43.59630591596549,3.63372802734375,0.23780796290507294
43.59630591596549,3.636474609375,0.22078252933847375
43.59630591596549,3.63922119140625,0.18784934959361066
43.59630591596549,3.6419677734375,0.14599145847009365
43.59630591596549,3.64471435546875,0.1030116139696953
43.59630591596549,3.80401611328125,0.11242678320493935
43.59630591596549,3.8067626953125,0.12599174951073142
43.59630591596549,3.80950927734375,0.1413789878453423
43.59630591596549,3.812255859375,0.15973663007933106
43.59630591596549,3.81500244140625,0.18042054212191708
43.59630591596549,3.8177490234375,0.2009936956560582
43.59630591596549,3.82049560546875,0.21858719199406204
43.59630591596549,3.8232421875,0.23151759299918495
43.59630591596549,3.82598876953125,0.2398226098241854
43.59630591596549,3.8287353515625,0.2443416222370509
43.59630591596549,3.83148193359375,0.24527720736390254
43.59630591596549,3.834228515625,0.24174494048933415
43.59630591596549,3.83697509765625,0.23285704583169892
43.59630591596549,3.8397216796875,0.21931794767216642
43.59630591596549,3.84246826171875,0.20414365349669777
43.59630591596549,3.84521484375,0.1919564231602202
43.59630591596549,3.84796142578125,0.18712046481057223
43.59630591596549,3.8507080078125,0.19164388888589143
43.59630591596549,3.85345458984375,0.20411383879577358
43.59630591596549,3.856201171875,0.22024954529070817
43.59630591596549,3.85894775390625,0.23452461476422787
43.59630591596549,3.8616943359375,0.2419124394954591
43.59630591596549,3.86444091796875,0.2390964795160662
43.59630591596549,3.8671875,0.22492197538969802
43.59630591596549,3.86993408203125,0.20035861376793446
43.59630591596549,3.8726806640625,0.16826209931474514
43.59630591596549,3.87542724609375,0.13274638818918585
43.59431676355148,3.62548828125,0.13390527016965095
43.59431676355148,3.62823486328125,0.17539756922731534
43.59431676355148,3.6309814453125,0.2104343281604563
43.59431676355148,3.63372802734375,0.23140236680266457
43.59431676355148,3.636474609375,0.23317665422446993
43.59431676355148,3.63922119140625,0.21502210880208228
43.59431676355148,3.6419677734375,0.1809085689561412
43.59431676355148,3.64471435546875,0.13833694503461777
43.59431676355148,3.7957763671875,0.11555801836929434
43.59431676355148,3.79852294921875,0.13592133363658201
43.59431676355148,3.80126953125,0.15500572206941338
43.59431676355148,3.80401611328125,0.17191848565286355
43.59431676355148,3.8067626953125,0.18705264722957018
43.59431676355148,3.80950927734375,0.20165748010335496
43.59431676355148,3.812255859375,0.21659582834228172
43.59431676355148,3.81500244140625,0.23125437970832402
43.59431676355148,3.8177490234375,0.2437258010345577
43.59431676355148,3.82049560546875,0.2522746250834304
43.59431676355148,3.8232421875,0.2568228136647825
43.59431676355148,3.82598876953125,0.2591413565310093
43.59431676355148,3.8287353515625,0.2614511644976934
43.59431676355148,3.83148193359375,0.2644253369536505
43.59431676355148,3.834228515625,0.2663753394288867
43.59431676355148,3.83697509765625,0.2645414160953073
43.59431676355148,3.8397216796875,0.25740939613561753
43.59431676355148,3.84246826171875,0.2461739188979161
43.59431676355148,3.84521484375,0.23443682458315399
43.59431676355148,3.84796142578125,0.22634662191976923
43.59431676355148,3.8507080078125,0.22415453968298304
43.59431676355148,3.85345458984375,0.22668612888372627
43.59431676355148,3.856201171875,0.2297640219127123
43.59431676355148,3.85894775390625,0.22822447309144894
43.59431676355148,3.8616943359375,0.2181923785818093
43.59431676355148,3.86444091796875,0.19843504950731672
43.59431676355148,3.8671875,0.170444630597954
43.59431676355148,3.86993408203125,0.13765670741529978
43.59431676355148,3.8726806640625,0.10430664299439368
43.59232754538541,3.62823486328125,0.13587439647734834
43.59232754538541,3.6309814453125,0.17739623065537682
43.59232754538541,3.63372802734375,0.2119498080310675
43.59232754538541,3.636474609375,0.2314839339126033
43.59232754538541,3.63922119140625,0.23087029879136964
43.59232754538541,3.6419677734375,0.2099944151817828
43.59232754538541,3.64471435546875,0.17407086720228263
43.59232754538541,3.6474609375,0.1318646252815524
43.59232754538541,3.78753662109375,0.10766680105275608
43.59232754538541,3.790283203125,0.12534346439075963
43.59232754538541,3.79302978515625,0.1454717827301423
43.59232754538541,3.7957763671875,0.16723572587899316
43.59232754538541,3.79852294921875,0.18908901258851296
43.59232754538541,3.80126953125,0.2092307129362135
43.59232754538541,3.80401611328125,0.2262712368749649
43.59232754538541,3.8067626953125,0.23974943887803182
43.59232754538541,3.80950927734375,0.2500219082603283
43.59232754538541,3.812255859375,0.25745987266039855
43.59232754538541,3.81500244140625,0.26172499309347563
43.59232754538541,3.8177490234375,0.2620528750316289
43.59232754538541,3.82049560546875,0.25843916635436215
43.59232754538541,3.8232421875,0.2526124854683984
43.59232754538541,3.82598876953125,0.24782489091575743
43.59232754538541,3.8287353515625,0.24728270071738662
43.59232754538541,3.83148193359375,0.2519862750756196
43.59232754538541,3.834228515625,0.25966580214875373
43.59232754538541,3.83697509765625,0.26600257281220735
43.59232754538541,3.8397216796875,0.2672720080905377
43.59232754538541,3.84246826171875,0.2623841215797575
43.59232754538541,3.84521484375,0.2531673857300404
43.59232754538541,3.84796142578125,0.24294059230562765
43.59232754538541,3.8507080078125,0.23417096831345907
43.59232754538541,3.85345458984375,0.22666972105943842
43.59232754538541,3.856201171875,0.217647452645794
43.59232754538541,3.85894775390625,0.2035600978830619
43.59232754538541,3.8616943359375,0.18230509325808225
43.59232754538541,3.86444091796875,0.15433919001018367
43.59232754538541,3.8671875,0.1223872354742454
43.59033826146748,3.6309814453125,0.1402497232001073
43.59033826146748,3.63372802734375,0.18224826959596604
43.59033826146748,3.636474609375,0.2156456804208809
43.59033826146748,3.63922119140625,0.23248147997022542
43.59033826146748,3.6419677734375,0.22862736521536192
43.59033826146748,3.64471435546875,0.20566604612606612
43.59033826146748,3.6474609375,0.17049698599410976
43.59033826146748,3.65020751953125,0.13259978142226803
43.59033826146748,3.6529541015625,0.10039510957068748
43.59033826146748,3.779296875,0.1128244814274674
43.59033826146748,3.78204345703125,0.12820724813656795
43.59033826146748,3.7847900390625,0.14311468981657843
43.59033826146748,3.78753662109375,0.15833145573212332
43.59033826146748,3.790283203125,0.17454057147786536
43.59033826146748,3.79302978515625,0.19192650181615178
43.59033826146748,3.7957763671875,0.21008452691183457
43.59033826146748,3.79852294921875,0.228082728405748
43.59033826146748,3.80126953125,0.24453815755008815
43.59033826146748,3.80401611328125,0.2578635193553162
43.59033826146748,3.8067626953125,0.26673692544625194
43.59033826146748,3.80950927734375,0.2704278926817594
43.59033826146748,3.812255859375,0.2686825107439775
43.59033826146748,3.81500244140625,0.26152982090259663
43.59033826146748,3.8177490234375,0.24957109468924576
43.59033826146748,3.82049560546875,0.2345861889442939
43.59033826146748,3.8232421875,0.21975207339120365
43.59033826146748,3.82598876953125,0.20907656550202358
43.59033826146748,3.8287353515625,0.20601153342302203
43.59033826146748,3.83148193359375,0.21158571724761135
43.59033826146748,3.834228515625,0.22330175278223147
43.59033826146748,3.83697509765625,0.23605777552119625
43.59033826146748,3.8397216796875,0.2446380194408259
43.59033826146748,3.84246826171875,0.24598597727414667
43.59033826146748,3.84521484375,0.24004982702326866
43.59033826146748,3.84796142578125,0.22903324095794544
43.59033826146748,3.8507080078125,0.21551454863626035
43.59033826146748,3.85345458984375,0.20059326335930297
43.59033826146748,3.856201171875,0.18344875660769772
43.59033826146748,3.85894775390625,0.16257364693540766
43.59033826146748,3.8616943359375,0.1374675794271571
43.59033826146748,3.86444091796875,0.1094128771137067
43.588348911797915,3.6309814453125,0.10397620444287739
43.588348911797915,3.63372802734375,0.14700165409354085
43.588348911797915,3.636474609375,0.18840944619862732
43.588348911797915,3.63922119140625,0.2195529161815223
43.588348911797915,3.6419677734375,0.23352125990416545
43.588348911797915,3.64471435546875,0.22806860530308917
43.588348911797915,3.6474609375,0.20681072349215868
43.588348911797915,3.65020751953125,0.17781631374839516
43.588348911797915,3.6529541015625,0.15030884153622176
43.588348911797915,3.65570068359375,0.13119776808955588
43.588348911797915,3.658447265625,0.12279094361286634
43.588348911797915,3.66119384765625,0.12240642502044835
43.588348911797915,3.6639404296875,0.12415625534476307
43.588348911797915,3.66668701171875,0.12209237275387719
43.588348911797915,3.66943359375,0.11284369005407718
43.588348911797915,3.77105712890625,0.10588675446442168
43.588348911797915,3.7738037109375,0.12721165687310304
43.588348911797915,3.77655029296875,0.14691064999680462
43.588348911797915,3.779296875,0.1639435847035065
43.588348911797915,3.78204345703125,0.17817514281092023
43.588348911797915,3.7847900390625,0.19018277752334195
43.588348911797915,3.78753662109375,0.20083357211438238
43.588348911797915,3.790283203125,0.21084019437378038
43.588348911797915,3.79302978515625,0.2206033502783338
43.588348911797915,3.7957763671875,0.2303311784468832
43.588348911797915,3.79852294921875,0.24000169755628833
43.588348911797915,3.80126953125,0.24899641866375533
43.588348911797915,3.80401611328125,0.25586359911089224
43.588348911797915,3.8067626953125,0.2586671399377741
43.588348911797915,3.80950927734375,0.255714096800613
43.588348911797915,3.812255859375,0.24614494394927303
43.588348911797915,3.81500244140625,0.23027225365439738
43.588348911797915,3.8177490234375,0.2098055453650611
43.588348911797915,3.82049560546875,0.18779310433225346
43.588348911797915,3.8232421875,0.16809060260367828
43.588348911797915,3.82598876953125,0.1545677092564176
43.588348911797915,3.8287353515625,0.1501527500690932
43.588348911797915,3.83148193359375,0.15558778767686104
43.588348911797915,3.834228515625,0.16851295235509042
43.588348911797915,3.83697509765625,0.183992008324827
43.588348911797915,3.8397216796875,0.1964687926830833
43.588348911797915,3.84246826171875,0.2018752185857321
43.588348911797915,3.84521484375,0.19881199713243755
43.588348911797915,3.84796142578125,0.18845371837174887
43.588348911797915,3.8507080078125,0.1732844278774384
43.588348911797915,3.85345458984375,0.15541568610062337
43.588348911797915,3.856201171875,0.13572258842550225
43.588348911797915,3.85894775390625,0.11433174292339904
43.58635949637694,3.63372802734375,0.11104155584337945
43.58635949637694,3.636474609375,0.15413191008115715
43.58635949637694,3.63922119140625,0.19414970042623517
43.58635949637694,3.6419677734375,0.22330101230774543
43.58635949637694,3.64471435546875,0.23647562747000891
43.58635949637694,3.6474609375,0.2336331866025787
43.58635949637694,3.65020751953125,0.21998745001503706
43.58635949637694,3.6529541015625,0.20382642249068006
43.58635949637694,3.65570068359375,0.19298360593891364
43.58635949637694,3.658447265625,0.19131788647414383
43.58635949637694,3.66119384765625,0.1968262246981195
43.58635949637694,3.6639404296875,0.20285110155273073
43.58635949637694,3.66668701171875,0.20190535088346714
43.58635949637694,3.66943359375,0.18944054654708545
43.58635949637694,3.67218017578125,0.165398953489846
43.58635949637694,3.6749267578125,0.1336093022353685
43.58635949637694,3.76556396484375,0.11014080042059553
43.58635949637694,3.768310546875,0.1321542485092006
43.58635949637694,3.77105712890625,0.15486040027118728
43.58635949637694,3.7738037109375,0.17579449623672752
43.58635949637694,3.77655029296875,0.1929954674551421
43.58635949637694,3.779296875,0.20562862351639216
43.58635949637694,3.78204345703125,0.21396845136063272
43.58635949637694,3.7847900390625,0.21891967579001734
43.58635949637694,3.78753662109375,0.2214400187994674
43.58635949637694,3.790283203125,0.22222589873867413
43.58635949637694,3.79302978515625,0.22185240940571532
43.58635949637694,3.7957763671875,0.22108560956533965
43.58635949637694,3.79852294921875,0.22075674386048774
43.58635949637694,3.80126953125,0.2210580349432906
43.58635949637694,3.80401611328125,0.2209228558597698
43.58635949637694,3.8067626953125,0.21821594376927994
43.58635949637694,3.80950927734375,0.21068207145209586
43.58635949637694,3.812255859375,0.1970211921354862
43.58635949637694,3.81500244140625,0.17760492466254932
43.58635949637694,3.8177490234375,0.15462581612375143
43.58635949637694,3.82049560546875,0.13153738399913778
43.58635949637694,3.8232421875,0.11201845021541064
43.58635949637694,3.834228515625,0.11064611773427045
43.58635949637694,3.83697509765625,0.12489473594492011
43.58635949637694,3.8397216796875,0.1372238880102824
43.58635949637694,3.84246826171875,0.14370755899331406
43.58635949637694,3.84521484375,0.14247196469038786
43.58635949637694,3.84796142578125,0.13400136972358848
43.58635949637694,3.8507080078125,0.12042593210329035
43.58635949637694,3.85345458984375,0.10417931483495624
43.58437001520479,3.636474609375,0.11762865826073327
43.58437001520479,3.63922119140625,0.16016614094296489
43.58437001520479,3.6419677734375,0.1989939616689241
43.58437001520479,3.64471435546875,0.2277764645788054
43.58437001520479,3.6474609375,0.24351288518619604
43.58437001520479,3.65020751953125,0.2480298178669772
43.58437001520479,3.6529541015625,0.24728516382813773
43.58437001520479,3.65570068359375,0.24857136625910856
43.58437001520479,3.658447265625,0.2565008716907808
43.58437001520479,3.66119384765625,0.26988000578834165
43.58437001520479,3.6639404296875,0.28202527183141746
43.58437001520479,3.66668701171875,0.28464964582578844
43.58437001520479,3.66943359375,0.27224951511555634
43.58437001520479,3.67218017578125,0.24419084276168188
43.58437001520479,3.6749267578125,0.20441457052896592
43.58437001520479,3.67767333984375,0.1596371413529257
43.58437001520479,3.680419921875,0.11658145174306944
43.58437001520479,3.75732421875,0.10913699828249596
43.58437001520479,3.76007080078125,0.12445771978855955
43.58437001520479,3.7628173828125,0.14156924708552993
43.58437001520479,3.76556396484375,0.1605352595138014
43.58437001520479,3.768310546875,0.1801451410752741
43.58437001520479,3.77105712890625,0.19820936628845737
43.58437001520479,3.7738037109375,0.2124287558331277
43.58437001520479,3.77655029296875,0.22136329271165295
43.58437001520479,3.779296875,0.22489391689442453
43.58437001520479,3.78204345703125,0.22393309684221668
43.58437001520479,3.7847900390625,0.21970245176871478
43.58437001520479,3.78753662109375,0.21313169517738512
43.58437001520479,3.790283203125,0.20477257402397678
43.58437001520479,3.79302978515625,0.19521235173287702
43.58437001520479,3.7957763671875,0.1854933927611502
43.58437001520479,3.79852294921875,0.17692712102452318
43.58437001520479,3.80126953125,0.17025651706799996
43.58437001520479,3.80401611328125,0.1648709122907649
43.58437001520479,3.8067626953125,0.15884825604539207
43.58437001520479,3.80950927734375,0.14988116963965933
43.58437001520479,3.812255859375,0.13648611697124086
43.58437001520479,3.81500244140625,0.11885684020731915
43.582380468281684,3.63922119140625,0.12262584906558636
43.582380468281684,3.6419677734375,0.16425062236051954
43.582380468281684,3.64471435546875,0.202265398674389
43.582380468281684,3.6474609375,0.2320681331982693
43.582380468281684,3.65020751953125,0.252561949375337
43.582380468281684,3.6529541015625,0.2668057167526021
43.582380468281684,3.65570068359375,0.2804165284845871
43.582380468281684,3.658447265625,0.29788963715745753
43.582380468281684,3.66119384765625,0.31888285903532054
43.582380468281684,3.6639404296875,0.3376246783600522
43.582380468281684,3.66668701171875,0.34619558828630015
43.582380468281684,3.66943359375,0.3387235924821595
43.582380468281684,3.67218017578125,0.313537540764257
43.582380468281684,3.6749267578125,0.2732592450784997
43.582380468281684,3.67767333984375,0.22371998413408284
43.582380468281684,3.680419921875,0.17178767323725608
43.582380468281684,3.68316650390625,0.12303018642294838
43.582380468281684,3.74908447265625,0.10960677572048193
43.582380468281684,3.7518310546875,0.12911363958353192
43.582380468281684,3.75457763671875,0.14649595889139505
43.582380468281684,3.75732421875,0.16200631524204395
43.582380468281684,3.76007080078125,0.17650819933606943
43.582380468281684,3.7628173828125,0.19064187161294308
43.582380468281684,3.76556396484375,0.2041270672057457
43.582380468281684,3.768310546875,0.2156573775224338
43.582380468281684,3.77105712890625,0.22342993068645003
43.582380468281684,3.7738037109375,0.22601524144939192
43.582380468281684,3.77655029296875,0.22307990370454933
43.582380468281684,3.779296875,0.21549946428198102
43.582380468281684,3.78204345703125,0.2047883600613419
43.582380468281684,3.7847900390625,0.19228637315132735
43.582380468281684,3.78753662109375,0.17870285847481476
43.582380468281684,3.790283203125,0.16430013407327712
43.582380468281684,3.79302978515625,0.14947501245337005
43.582380468281684,3.7957763671875,0.13516729644971795
43.582380468281684,3.79852294921875,0.122648649039451
43.582380468281684,3.80126953125,0.11276836156188261
43.582380468281684,3.80401611328125,0.10524230929345466
43.580390855607845,3.6419677734375,0.12470316332593158
43.580390855607845,3.64471435546875,0.16427643543760442
43.580390855607845,3.6474609375,0.20057547221552366
43.580390855607845,3.65020751953125,0.2307127271970284
43.580390855607845,3.6529541015625,0.2551836894159276
43.580390855607845,3.65570068359375,0.2774826963616441
43.580390855607845,3.658447265625,0.30135701087037453
43.580390855607845,3.66119384765625,0.3272737732805342
43.580390855607845,3.6639404296875,0.35120720866482397
43.580390855607845,3.66668701171875,0.3668637545664863
43.580390855607845,3.66943359375,0.3688734145145252
43.580390855607845,3.67218017578125,0.3543611075209209
43.580390855607845,3.6749267578125,0.32326544320825235
43.580390855607845,3.67767333984375,0.2784500146612774
43.580390855607845,3.680419921875,0.22504747758400345
43.580390855607845,3.68316650390625,0.16892373111061862
43.580390855607845,3.6859130859375,0.1157195568732707
43.580390855607845,3.74359130859375,0.11026989828330618
43.580390855607845,3.746337890625,0.13577515525080264
43.580390855607845,3.74908447265625,0.15902051490647848
43.580390855607845,3.7518310546875,0.17863892253477126
43.580390855607845,3.75457763671875,0.19426749175965743
43.580390855607845,3.75732421875,0.20643615646998736
43.580390855607845,3.76007080078125,0.21594032397386217
43.580390855607845,3.7628173828125,0.2230754024303128
43.580390855607845,3.76556396484375,0.22727530983341804
43.580390855607845,3.768310546875,0.22739671354405927
43.580390855607845,3.77105712890625,0.22243349052411804
43.580390855607845,3.7738037109375,0.2122221028525678
43.580390855607845,3.77655029296875,0.19773252651969567
43.580390855607845,3.779296875,0.18074619304373818
43.580390855607845,3.78204345703125,0.16308737785139113
43.580390855607845,3.7847900390625,0.14590515590498335
43.580390855607845,3.78753662109375,0.12949133545684546
43.580390855607845,3.790283203125,0.11370340718548884
43.5784011771835,3.64471435546875,0.12099433684673375
43.5784011771835,3.6474609375,0.1558703585030487
43.5784011771835,3.65020751953125,0.18767513379127845
43.5784011771835,3.6529541015625,0.21528324470449786
43.5784011771835,3.65570068359375,0.24032744381593268
43.5784011771835,3.658447265625,0.2655845306618708
43.5784011771835,3.66119384765625,0.29222358802624915
43.5784011771835,3.6639404296875,0.31842799845567266
43.5784011771835,3.66668701171875,0.34047988957457914
43.5784011771835,3.66943359375,0.3544292842384744
43.5784011771835,3.67218017578125,0.3564784978871905
43.5784011771835,3.6749267578125,0.34315330163496843
43.5784011771835,3.67767333984375,0.3127422023120845
43.5784011771835,3.680419921875,0.2668109258145395
43.5784011771835,3.68316650390625,0.21020278037978127
43.5784011771835,3.6859130859375,0.1502038854970692
43.5784011771835,3.7408447265625,0.12770335629619226
43.5784011771835,3.74359130859375,0.15639512681558254
43.5784011771835,3.746337890625,0.18134114341802826
43.5784011771835,3.74908447265625,0.20092305138960762
43.5784011771835,3.7518310546875,0.21474756712395443
43.5784011771835,3.75457763671875,0.2234728913829074
43.5784011771835,3.75732421875,0.22820292383736826
43.5784011771835,3.76007080078125,0.22971261595962705
43.5784011771835,3.7628173828125,0.22794198677809108
43.5784011771835,3.76556396484375,0.22210200954911818
43.5784011771835,3.768310546875,0.2113393696115508
43.5784011771835,3.77105712890625,0.19552489208137278
43.5784011771835,3.7738037109375,0.17567890872374972
43.5784011771835,3.77655029296875,0.15378596764442912
43.5784011771835,3.779296875,0.1320973310997908
43.5784011771835,3.78204345703125,0.11230884058343872
43.576411433008886,3.6474609375,0.10784915292254095
43.576411433008886,3.65020751953125,0.13461879699762236
43.576411433008886,3.6529541015625,0.15876636794356302
43.576411433008886,3.65570068359375,0.18075511123344773
43.576411433008886,3.658447265625,0.20252773578797884
43.576411433008886,3.66119384765625,0.22578397437513523
43.576411433008886,3.6639404296875,0.25086798283049355
43.576411433008886,3.66668701171875,0.2769804582877894
43.576411433008886,3.66943359375,0.30227593881104425
43.576411433008886,3.67218017578125,0.3227327578259887
43.576411433008886,3.6749267578125,0.3317219793366036
43.576411433008886,3.67767333984375,0.3224718491001642
43.576411433008886,3.680419921875,0.2918544552835227
43.576411433008886,3.68316650390625,0.2423604454886059
43.576411433008886,3.6859130859375,0.18183716846345266
43.576411433008886,3.68865966796875,0.12157719065590208
43.576411433008886,3.7353515625,0.1069243960524267
43.576411433008886,3.73809814453125,0.14010032172054096
43.576411433008886,3.7408447265625,0.17097370300885614
43.576411433008886,3.74359130859375,0.1961684956942183
43.576411433008886,3.746337890625,0.21368753618154443
43.576411433008886,3.74908447265625,0.223305686563529
43.576411433008886,3.7518310546875,0.2263035144028964
43.576411433008886,3.75457763671875,0.22465114319941443
43.576411433008886,3.75732421875,0.22002517477798844
43.576411433008886,3.76007080078125,0.2131052513764312
43.576411433008886,3.7628173828125,0.20347394344405978
43.576411433008886,3.76556396484375,0.19017166011961223
43.576411433008886,3.768310546875,0.17259920380411112
43.576411433008886,3.77105712890625,0.15123946482388864
43.576411433008886,3.7738037109375,0.1277786138923039
43.576411433008886,3.77655029296875,0.10456159604493147
43.57442162308422,3.6529541015625,0.10121861934251714
43.57442162308422,3.65570068359375,0.11671217449105604
43.57442162308422,3.658447265625,0.13215497207654667
43.57442162308422,3.66119384765625,0.14952206246142516
43.57442162308422,3.6639404296875,0.1707908013986927
43.57442162308422,3.66668701171875,0.19774267395267917
43.57442162308422,3.66943359375,0.23088142100276543
43.57442162308422,3.67218017578125,0.2668756528872527
43.57442162308422,3.6749267578125,0.2971852572142312
43.57442162308422,3.67767333984375,0.31089703948966063
43.57442162308422,3.680419921875,0.30023153581547624
43.57442162308422,3.68316650390625,0.26442991047662506
43.57442162308422,3.6859130859375,0.2104515601498883
43.57442162308422,3.68865966796875,0.15086905590267616
43.57442162308422,3.73260498046875,0.11195074104806302
43.57442162308422,3.7353515625,0.14768700182593547
43.57442162308422,3.73809814453125,0.18014407369755484
43.57442162308422,3.7408447265625,0.20498547280947096
43.57442162308422,3.74359130859375,0.2196412175315475
43.57442162308422,3.746337890625,0.22388060349539024
43.57442162308422,3.74908447265625,0.2195879686756192
43.57442162308422,3.7518310546875,0.20982731239564384
43.57442162308422,3.75457763671875,0.19758351090351528
43.57442162308422,3.75732421875,0.18474175396723364
43.57442162308422,3.76007080078125,0.17169804817475762
43.57442162308422,3.7628173828125,0.15767992622781443
43.57442162308422,3.76556396484375,0.14157774358517874
43.57442162308422,3.768310546875,0.12287293204981706
43.57442162308422,3.77105712890625,0.102190027968323
43.57243174740974,3.6639404296875,0.1003827049826797
43.57243174740974,3.66668701171875,0.1251553233580232
43.57243174740974,3.66943359375,0.16107973031359404
43.57243174740974,3.67218017578125,0.2062873817238681
43.57243174740974,3.6749267578125,0.25209981191124947
43.57243174740974,3.67767333984375,0.2854967784482058
43.57243174740974,3.680419921875,0.2953093443748331
43.57243174740974,3.68316650390625,0.27742564143053206
43.57243174740974,3.6859130859375,0.2365801946377785
43.57243174740974,3.68865966796875,0.18467154971800212
43.57243174740974,3.69140625,0.13543656600325868
43.57243174740974,3.7298583984375,0.11325158409699843
43.57243174740974,3.73260498046875,0.15124529311977966
43.57243174740974,3.7353515625,0.18528550946559744
43.57243174740974,3.73809814453125,0.2099333392110103
43.57243174740974,3.7408447265625,0.22193927796132001
43.57243174740974,3.74359130859375,0.22102219904136253
43.57243174740974,3.746337890625,0.2095597064473622
43.57243174740974,3.74908447265625,0.19152988240638744
43.57243174740974,3.7518310546875,0.17112369273236241
43.57243174740974,3.75457763671875,0.15150667063089446
43.57243174740974,3.75732421875,0.13416703841959085
43.57243174740974,3.76007080078125,0.11898185914099514
43.57243174740974,3.7628173828125,0.10483282175890499
43.570441805985645,3.66943359375,0.10639759739791016
43.570441805985645,3.67218017578125,0.1536237286660161
43.570441805985645,3.6749267578125,0.2068234936269674
43.570441805985645,3.67767333984375,0.2532391120881035
43.570441805985645,3.680419921875,0.2803442894735982
43.570441805985645,3.68316650390625,0.281445147443872
43.570441805985645,3.6859130859375,0.2583435020894368
43.570441805985645,3.68865966796875,0.22049676175865568
43.570441805985645,3.69140625,0.1803095629331094
43.570441805985645,3.69415283203125,0.14665093441256277
43.570441805985645,3.6968994140625,0.12153051282851712
43.570441805985645,3.69964599609375,0.10206027385626561
43.570441805985645,3.72711181640625,0.11098015309459262
43.570441805985645,3.7298583984375,0.15107161884784884
43.570441805985645,3.73260498046875,0.18740271367430925
43.570441805985645,3.7353515625,0.2130378221733827
43.570441805985645,3.73809814453125,0.2235956820475433
43.570441805985645,3.7408447265625,0.21858017174738154
43.570441805985645,3.74359130859375,0.20101274168022554
43.570441805985645,3.746337890625,0.17587442675449413
43.570441805985645,3.74908447265625,0.14836450373511545
43.570441805985645,3.7518310546875,0.12257759979090385
43.570441805985645,3.75457763671875,0.10081801871071808
43.56845179881219,3.67218017578125,0.112877157027557
43.56845179881219,3.6749267578125,0.16574463160388034
43.56845179881219,3.67767333984375,0.2174500731203912
43.56845179881219,3.680419921875,0.25617929184404925
43.56845179881219,3.68316650390625,0.27400465415824277
43.56845179881219,3.6859130859375,0.2699474644448799
43.56845179881219,3.68865966796875,0.2500637748139871
43.56845179881219,3.69140625,0.22392038341005946
43.56845179881219,3.69415283203125,0.19907990010095444
43.56845179881219,3.6968994140625,0.1778230531737592
43.56845179881219,3.69964599609375,0.15827468923270416
43.56845179881219,3.702392578125,0.1377669608709864
43.56845179881219,3.70513916015625,0.11529294655138707
43.56845179881219,3.724365234375,0.10724092961790839
43.56845179881219,3.72711181640625,0.1475435702714893
43.56845179881219,3.7298583984375,0.18644140579312485
43.56845179881219,3.73260498046875,0.21492515829093223
43.56845179881219,3.7353515625,0.22653172998519291
43.56845179881219,3.73809814453125,0.21957745627285222
43.56845179881219,3.7408447265625,0.19738868474358942
43.56845179881219,3.74359130859375,0.16631353673575844
43.56845179881219,3.746337890625,0.1329688787566326
43.56845179881219,3.74908447265625,0.10234121909446346
43.566461725889596,3.6749267578125,0.12849940345721117
43.566461725889596,3.67767333984375,0.17848544760508955
43.566461725889596,3.680419921875,0.22210649932850687
43.566461725889596,3.68316650390625,0.25162808875941156
43.566461725889596,3.6859130859375,0.2641271509597486
43.566461725889596,3.68865966796875,0.26230438942214024
43.566461725889596,3.69140625,0.2523297453724406
43.566461725889596,3.69415283203125,0.2397348633154138
43.566461725889596,3.6968994140625,0.22654623646855543
43.566461725889596,3.69964599609375,0.21160793132721029
43.566461725889596,3.702392578125,0.19290861342457694
43.566461725889596,3.70513916015625,0.16970109150976914
43.566461725889596,3.7078857421875,0.14338724912120038
43.566461725889596,3.71063232421875,0.11732653754875741
43.566461725889596,3.72161865234375,0.11087171232019195
43.566461725889596,3.724365234375,0.14489227956515183
43.566461725889596,3.72711181640625,0.1832404605901972
43.566461725889596,3.7298583984375,0.21485683362239769
43.566461725889596,3.73260498046875,0.2302591562238982
43.566461725889596,3.7353515625,0.22493293310472076
43.566461725889596,3.73809814453125,0.20085252253362862
43.566461725889596,3.7408447265625,0.16512921230457092
43.566461725889596,3.74359130859375,0.1263849609470136
43.5644715872181,3.67767333984375,0.13691601902386108
43.5644715872181,3.680419921875,0.1789268934217146
43.5644715872181,3.68316650390625,0.21353885439836956
43.5644715872181,3.6859130859375,0.23701177340161284
43.5644715872181,3.68865966796875,0.2495166208402284
43.5644715872181,3.69140625,0.25419900704990284
43.5644715872181,3.69415283203125,0.254545228443938
43.5644715872181,3.6968994140625,0.25213382253555067
43.5644715872181,3.69964599609375,0.2463078749148525
43.5644715872181,3.702392578125,0.2354109646262463
43.5644715872181,3.70513916015625,0.21839195149831608
43.5644715872181,3.7078857421875,0.19596869259657368
43.5644715872181,3.71063232421875,0.1710903252139629
43.5644715872181,3.71337890625,0.14884826321536204
43.5644715872181,3.71612548828125,0.13568827502872188
43.5644715872181,3.7188720703125,0.13727349074427145
43.5644715872181,3.72161865234375,0.15514163002927361
43.5644715872181,3.724365234375,0.18431821894414713
43.5644715872181,3.72711181640625,0.21429013516129414
43.5644715872181,3.7298583984375,0.23316340280976364
43.5644715872181,3.73260498046875,0.23251324425949826
43.5644715872181,3.7353515625,0.21066772319791977
43.5644715872181,3.73809814453125,0.1731330072038538
43.5644715872181,3.7408447265625,0.12965240708193743
43.56248138279793,3.680419921875,0.13101656770787493
43.56248138279793,3.68316650390625,0.16409920274055304
43.56248138279793,3.6859130859375,0.19146802918488326
43.56248138279793,3.68865966796875,0.21195231038883783
43.56248138279793,3.69140625,0.22664821866106494
43.56248138279793,3.69415283203125,0.23752540386315732
43.56248138279793,3.6968994140625,0.24584432781715695
43.56248138279793,3.69964599609375,0.25141577423269623
43.56248138279793,3.702392578125,0.25285893148758226
43.56248138279793,3.70513916015625,0.24852628754007847
43.56248138279793,3.7078857421875,0.23769735785182466
43.56248138279793,3.71063232421875,0.2216678608555545
43.56248138279793,3.71337890625,0.20442998147422456
43.56248138279793,3.71612548828125,0.1922112027542954
43.56248138279793,3.7188720703125,0.19094729187617085
43.56248138279793,3.72161865234375,0.20230662299882005
43.56248138279793,3.724365234375,0.22120474535005594
43.56248138279793,3.72711181640625,0.23735214793712517
43.56248138279793,3.7298583984375,0.24005408838464942
43.56248138279793,3.73260498046875,0.22319690304400425
43.56248138279793,3.7353515625,0.18800759509968729
43.56248138279793,3.73809814453125,0.142422782196942
43.560491112629286,3.68316650390625,0.11195558032395717
43.560491112629286,3.6859130859375,0.13672207207358147
43.560491112629286,3.68865966796875,0.15828459861654498
43.560491112629286,3.69140625,0.1768157106727133
43.560491112629286,3.69415283203125,0.19351985563953975
43.560491112629286,3.6968994140625,0.2096402698416291
43.560491112629286,3.69964599609375,0.2255707097248469
43.560491112629286,3.702392578125,0.24038982128455033
43.560491112629286,3.70513916015625,0.2520204034333902
43.560491112629286,3.7078857421875,0.2580919278972281
43.560491112629286,3.71063232421875,0.25738266816430866
43.560491112629286,3.71337890625,0.2513513557822209
43.560491112629286,3.71612548828125,0.24442725430201886
43.560491112629286,3.7188720703125,0.24171478551951917
43.560491112629286,3.72161865234375,0.2450034738854147
43.560491112629286,3.724365234375,0.2504054574061771
43.560491112629286,3.72711181640625,0.24994124899036968
43.560491112629286,3.7298583984375,0.23592730334828418
43.560491112629286,3.73260498046875,0.20525243217081562
43.560491112629286,3.7353515625,0.16141639439862845
43.560491112629286,3.73809814453125,0.11323351164639793
43.55850077671243,3.68865966796875,0.10213093077297694
43.55850077671243,3.69140625,0.11898470618544967
43.55850077671243,3.69415283203125,0.13626824048851088
43.55850077671243,3.6968994140625,0.15546826462740518
43.55850077671243,3.69964599609375,0.1777018247225344
43.55850077671243,3.702392578125,0.2028469297340057
43.55850077671243,3.70513916015625,0.22897268984598365
43.55850077671243,3.7078857421875,0.2525338787319568
43.55850077671243,3.71063232421875,0.2697226509902702
43.55850077671243,3.71337890625,0.2786592068484496
43.55850077671243,3.71612548828125,0.2806778372136041
43.55850077671243,3.7188720703125,0.2788962769101122
43.55850077671243,3.72161865234375,0.2749218486094453
43.55850077671243,3.724365234375,0.2668692812962838
43.55850077671243,3.72711181640625,0.2504700519331221
43.55850077671243,3.7298583984375,0.22211361690382303
43.55850077671243,3.73260498046875,0.18176633344202736
43.55850077671243,3.7353515625,0.1342744573380578
43.55651037504758,3.69964599609375,0.1228844352987957
43.55651037504758,3.702392578125,0.15247796447392517
43.55651037504758,3.70513916015625,0.1874296309163728
43.55651037504758,3.7078857421875,0.22398816631154067
43.55651037504758,3.71063232421875,0.25654800041292486
43.55651037504758,3.71337890625,0.2800768018909772
43.55651037504758,3.71612548828125,0.2923299848371272
43.55651037504758,3.7188720703125,0.293676956084316
43.55651037504758,3.72161865234375,0.28506157223076406
43.55651037504758,3.724365234375,0.26663804101482486
43.55651037504758,3.72711181640625,0.23813788932325622
43.55651037504758,3.7298583984375,0.20008861755629953
43.55651037504758,3.73260498046875,0.15508783273384136
43.55651037504758,3.7353515625,0.10844338609713734
43.554519907634976,3.702392578125,0.10289283250718557
43.554519907634976,3.70513916015625,0.13927854140541898
43.554519907634976,3.7078857421875,0.1811517147036393
43.554519907634976,3.71063232421875,0.22241166459177167
43.554519907634976,3.71337890625,0.25600233183753024
43.554519907634976,3.71612548828125,0.2766728953564117
43.554519907634976,3.7188720703125,0.2820400822465142
43.554519907634976,3.72161865234375,0.2719999518767748
43.554519907634976,3.724365234375,0.24812156016174997
43.554519907634976,3.72711181640625,0.21333993164742124
43.554519907634976,3.7298583984375,0.17145826161102679
43.554519907634976,3.73260498046875,0.12688825471453513
43.55252937447482,3.7078857421875,0.13436884734632104
43.55252937447482,3.71063232421875,0.17627554031155873
43.55252937447482,3.71337890625,0.21309768872688656
43.55252937447482,3.71612548828125,0.23797139169915393
43.55252937447482,3.7188720703125,0.24655515304216657
43.55252937447482,3.72161865234375,0.2376684800295193
43.55252937447482,3.724365234375,0.21340932953899736
43.55252937447482,3.72711181640625,0.1784738066750086
43.55252937447482,3.7298583984375,0.1385036421313094
43.55053877556738,3.71063232421875,0.12799698610647395
43.55053877556738,3.71337890625,0.1616294783803179
43.55053877556738,3.71612548828125,0.18588731099481878
43.55053877556738,3.7188720703125,0.19570742952884063
43.55053877556738,3.72161865234375,0.18921082854245377
43.55053877556738,3.724365234375,0.16832201084002937
43.55053877556738,3.72711181640625,0.13803636821428972
43.55053877556738,3.7298583984375,0.10433123615159809
43.548548110912876,3.71337890625,0.11156014123041379
43.548548110912876,3.71612548828125,0.13154016205202643
43.548548110912876,3.7188720703125,0.1404640506725228
43.548548110912876,3.72161865234375,0.1363378509170818
43.548548110912876,3.724365234375,0.12060353036582554
